# Total force on electrodes and pressure in atomic unit
# -----------------------------------------
# Force:   1 au = 8.2387225e-8 N = 51.421 eV/angstrom
# Pressure:   1 bar = 3.3988273773641905e-09 ua
# step        0
#      fx_total                fy_total                fz_total              fx_coulomb_sr           fy_coulomb_sr           fz_coulomb_sr           fx_coulomb_k0           fy_coulomb_k0           fz_coulomb_k0           fx_coulomb_lr           fy_coulomb_lr           fz_coulomb_lr         fx_lennard_jones        fy_lennard_jones        fz_lennard_jones          fx_fumi_tosi            fy_fumi_tosi            fz_fumi_tosi               pressure               velocity_z                com_z         
+0.000000000000000E+000 +0.000000000000000E+000 -2.218278897479137E-001 +0.000000000000000E+000 +0.000000000000000E+000 +0.000000000000000E+000 +0.000000000000000E+000 +0.000000000000000E+000 +0.000000000000000E+000 +0.000000000000000E+000 +0.000000000000000E+000 +0.000000000000000E+000 +0.000000000000000E+000 +0.000000000000000E+000 +0.000000000000000E+000 +0.000000000000000E+000 +0.000000000000000E+000 +0.000000000000000E+000 -1.339442853661952E-005 +0.000000000000000E+000 -2.734669919303159E+001
+0.000000000000000E+000 +0.000000000000000E+000 +1.557025101416235E-001 +0.000000000000000E+000 +0.000000000000000E+000 +0.000000000000000E+000 +0.000000000000000E+000 +0.000000000000000E+000 +0.000000000000000E+000 +0.000000000000000E+000 +0.000000000000000E+000 +0.000000000000000E+000 +0.000000000000000E+000 +0.000000000000000E+000 +0.000000000000000E+000 +0.000000000000000E+000 +0.000000000000000E+000 +0.000000000000000E+000 +9.401640828095497E-006 +0.000000000000000E+000 +2.734669919303159E+001

# step        1
#      fx_total                fy_total                fz_total              fx_coulomb_sr           fy_coulomb_sr           fz_coulomb_sr           fx_coulomb_k0           fy_coulomb_k0           fz_coulomb_k0           fx_coulomb_lr           fy_coulomb_lr           fz_coulomb_lr         fx_lennard_jones        fy_lennard_jones        fz_lennard_jones          fx_fumi_tosi            fy_fumi_tosi            fz_fumi_tosi               pressure               velocity_z                com_z         
+0.000000000000000E+000 +0.000000000000000E+000 -2.217572410724351E-001 +0.000000000000000E+000 +0.000000000000000E+000 +0.000000000000000E+000 +0.000000000000000E+000 +0.000000000000000E+000 +0.000000000000000E+000 +0.000000000000000E+000 +0.000000000000000E+000 +0.000000000000000E+000 +0.000000000000000E+000 +0.000000000000000E+000 +0.000000000000000E+000 +0.000000000000000E+000 +0.000000000000000E+000 +0.000000000000000E+000 -1.339016262291507E-005 -2.458660930641162E-007 -2.734670427603464E+001
+0.000000000000000E+000 +0.000000000000000E+000 +1.556517366980289E-001 +0.000000000000000E+000 +0.000000000000000E+000 +0.000000000000000E+000 +0.000000000000000E+000 +0.000000000000000E+000 +0.000000000000000E+000 +0.000000000000000E+000 +0.000000000000000E+000 +0.000000000000000E+000 +0.000000000000000E+000 +0.000000000000000E+000 +0.000000000000000E+000 +0.000000000000000E+000 +0.000000000000000E+000 +0.000000000000000E+000 +9.398575022156673E-006 +1.708950098461128E-007 +2.734670272611194E+001

# step        2
#      fx_total                fy_total                fz_total              fx_coulomb_sr           fy_coulomb_sr           fz_coulomb_sr           fx_coulomb_k0           fy_coulomb_k0           fz_coulomb_k0           fx_coulomb_lr           fy_coulomb_lr           fz_coulomb_lr         fx_lennard_jones        fy_lennard_jones        fz_lennard_jones          fx_fumi_tosi            fy_fumi_tosi            fz_fumi_tosi               pressure               velocity_z                com_z         
+0.000000000000000E+000 +0.000000000000000E+000 -2.215466900397515E-001 +0.000000000000000E+000 +0.000000000000000E+000 +0.000000000000000E+000 +0.000000000000000E+000 +0.000000000000000E+000 +0.000000000000000E+000 +0.000000000000000E+000 +0.000000000000000E+000 +0.000000000000000E+000 +0.000000000000000E+000 +0.000000000000000E+000 +0.000000000000000E+000 +0.000000000000000E+000 +0.000000000000000E+000 +0.000000000000000E+000 -1.337744911442072E-005 -4.915727540342551E-007 -2.734671952173190E+001
+0.000000000000000E+000 +0.000000000000000E+000 +1.554982935717280E-001 +0.000000000000000E+000 +0.000000000000000E+000 +0.000000000000000E+000 +0.000000000000000E+000 +0.000000000000000E+000 +0.000000000000000E+000 +0.000000000000000E+000 +0.000000000000000E+000 +0.000000000000000E+000 +0.000000000000000E+000 +0.000000000000000E+000 +0.000000000000000E+000 +0.000000000000000E+000 +0.000000000000000E+000 +0.000000000000000E+000 +9.389309807615755E-006 +3.416742348090332E-007 +2.734671332297280E+001

# step        3
#      fx_total                fy_total                fz_total              fx_coulomb_sr           fy_coulomb_sr           fz_coulomb_sr           fx_coulomb_k0           fy_coulomb_k0           fz_coulomb_k0           fx_coulomb_lr           fy_coulomb_lr           fz_coulomb_lr         fx_lennard_jones        fy_lennard_jones        fz_lennard_jones          fx_fumi_tosi            fy_fumi_tosi            fz_fumi_tosi               pressure               velocity_z                com_z         
+0.000000000000000E+000 +0.000000000000000E+000 -2.211965422378866E-001 +0.000000000000000E+000 +0.000000000000000E+000 +0.000000000000000E+000 +0.000000000000000E+000 +0.000000000000000E+000 +0.000000000000000E+000 +0.000000000000000E+000 +0.000000000000000E+000 +0.000000000000000E+000 +0.000000000000000E+000 +0.000000000000000E+000 +0.000000000000000E+000 +0.000000000000000E+000 +0.000000000000000E+000 +0.000000000000000E+000 -1.335630646317582E-005 -7.369615149970757E-007 -2.734674492025309E+001
+0.000000000000000E+000 +0.000000000000000E+000 +1.552423742613527E-001 +0.000000000000000E+000 +0.000000000000000E+000 +0.000000000000000E+000 +0.000000000000000E+000 +0.000000000000000E+000 +0.000000000000000E+000 +0.000000000000000E+000 +0.000000000000000E+000 +0.000000000000000E+000 +0.000000000000000E+000 +0.000000000000000E+000 +0.000000000000000E+000 +0.000000000000000E+000 +0.000000000000000E+000 +0.000000000000000E+000 +9.373856868321880E-006 +5.122213631211375E-007 +2.734673097642102E+001

# step        4
#      fx_total                fy_total                fz_total              fx_coulomb_sr           fy_coulomb_sr           fz_coulomb_sr           fx_coulomb_k0           fy_coulomb_k0           fz_coulomb_k0           fx_coulomb_lr           fy_coulomb_lr           fz_coulomb_lr         fx_lennard_jones        fy_lennard_jones        fz_lennard_jones          fx_fumi_tosi            fy_fumi_tosi            fz_fumi_tosi               pressure               velocity_z                com_z         
+0.000000000000000E+000 +0.000000000000000E+000 -2.207073047254218E-001 +0.000000000000000E+000 +0.000000000000000E+000 +0.000000000000000E+000 +0.000000000000000E+000 +0.000000000000000E+000 +0.000000000000000E+000 +0.000000000000000E+000 +0.000000000000000E+000 +0.000000000000000E+000 +0.000000000000000E+000 +0.000000000000000E+000 +0.000000000000000E+000 +0.000000000000000E+000 +0.000000000000000E+000 +0.000000000000000E+000 -1.332676528643024E-005 -9.818743687863363E-007 -2.734678045518389E+001
+0.000000000000000E+000 +0.000000000000000E+000 +1.548843010956532E-001 +0.000000000000000E+000 +0.000000000000000E+000 +0.000000000000000E+000 +0.000000000000000E+000 +0.000000000000000E+000 +0.000000000000000E+000 +0.000000000000000E+000 +0.000000000000000E+000 +0.000000000000000E+000 +0.000000000000000E+000 +0.000000000000000E+000 +0.000000000000000E+000 +0.000000000000000E+000 +0.000000000000000E+000 +0.000000000000000E+000 +9.352235667154195E-006 +6.824203754739947E-007 +2.734675567445954E+001

# step        5
#      fx_total                fy_total                fz_total              fx_coulomb_sr           fy_coulomb_sr           fz_coulomb_sr           fx_coulomb_k0           fy_coulomb_k0           fz_coulomb_k0           fx_coulomb_lr           fy_coulomb_lr           fz_coulomb_lr         fx_lennard_jones        fy_lennard_jones        fz_lennard_jones          fx_fumi_tosi            fy_fumi_tosi            fz_fumi_tosi               pressure               velocity_z                com_z         
+0.000000000000000E+000 +0.000000000000000E+000 -2.200796849477297E-001 +0.000000000000000E+000 +0.000000000000000E+000 +0.000000000000000E+000 +0.000000000000000E+000 +0.000000000000000E+000 +0.000000000000000E+000 +0.000000000000000E+000 +0.000000000000000E+000 +0.000000000000000E+000 +0.000000000000000E+000 +0.000000000000000E+000 +0.000000000000000E+000 +0.000000000000000E+000 +0.000000000000000E+000 +0.000000000000000E+000 -1.328886830120435E-005 -1.226153996824378E-006 -2.734682610358966E+001
+0.000000000000000E+000 +0.000000000000000E+000 +1.544245242258955E-001 +0.000000000000000E+000 +0.000000000000000E+000 +0.000000000000000E+000 +0.000000000000000E+000 +0.000000000000000E+000 +0.000000000000000E+000 +0.000000000000000E+000 +0.000000000000000E+000 +0.000000000000000E+000 +0.000000000000000E+000 +0.000000000000000E+000 +0.000000000000000E+000 +0.000000000000000E+000 +0.000000000000000E+000 +0.000000000000000E+000 +9.324473385180731E-006 +8.521556905329802E-007 +2.734678740030251E+001

