# Energy in atomic unit (1 Eh = 2625.499640 kJ/mol)
# -------------------------------------------------
# step         Hamiltonian             Total energy           Kinetic energy         Potential energy        Thermostat energy    External field energy 
       0 -6.199890162193909E+001 -6.199890162193909E+001  3.836627222748656E+000 -6.583552884468774E+001  0.000000000000000E+000  0.000000000000000E+000
       1 -6.199498443306396E+001 -6.199498443306396E+001  3.864519894334446E+000 -6.585950432739841E+001  0.000000000000000E+000  0.000000000000000E+000
