ITEM: TIMESTEP
0
ITEM: NUMBER OF ATOMS
216
ITEM: BOX BOUNDS pp pp ff
-3.6981923812518023e+00 1.7798693381161936e+01
-3.6981923812518023e+00 1.7798693381161936e+01
-2.3698192381251804e+01 3.7798693381161939e+01
ITEM: ATOMS id element x y z fx fy fz 
1 Na     9.01055176822276     11.1939779305004     -2.9438895893823     12.4374211417226     2.08326136147594    -14.2719109110635 
2 Na     3.44192480403212     2.57368331617479    -4.33039041444498     3.22113449924219     14.6087295429425     -21.236511768224 
3 Na     11.6292166508295     1.33622675152751     8.49390098662829     -3.9576367608446    -2.29060701957618     1.64971405405087 
4 Na     9.63164816746476    0.753737257838748     2.42684776508212    -5.13303130298534     2.98157386183053     7.37966659188528 
5 Na     16.5410508014797     0.38022614390347     2.76943679595586     37.5796833997719     26.9443064355128     5.81063135451271 
6 Na     2.29833987839346     -3.1073535218955     1.53821995681414     35.1220452185693    -27.5363779664915    -58.2976720782881 
7 Na    0.585099982780034    -1.26229070584118      13.645705884828     6.89618709962445     13.1600229015473     4.59836333353688 
8 Na     1.34845814797047     7.43454261089312     15.7598610502736      -12.22267402688    0.648093948413583    -1.09486521025671 
9 Na    0.370961201811277     4.09155433149906     13.6301139976327     -119.91378046214     16.3183694663592    -24.2598997684687 
10 Na     6.48196236090001     13.1124685746206     4.83793156697515     18.4842210552633     46.9917065713542      21.146969185666 
11 Na     3.87331363111806     11.1514034724179     15.5864078938418     51.9648580884112     3.25661395315695    -8.64813907382018 
12 Na    -1.69541971999822     15.8229359950343     18.7979658620708    -74.2290438603939     30.4804821582913      -4.324491424799 
13 Na     6.07580352962224    -2.35890344912468      15.221984925108    -9.46420906661787    -4.01298640620543     8.65526020903475 
14 Na     13.2228348314517     4.01007912295916     4.07596547730472   -0.494922632123705     9.42694938035413    -1.18051422706664 
15 Na     7.02703159924889      11.802040377355     10.9955574065355     10.3476540826525     9.78791578749336    -9.48255655429185 
16 Na     3.58655690244928     16.6990321511375     4.78625769224472    -0.38338230080238     3.43163873663259    -1.13533688792565 
17 Na     9.71542062033933      9.3630210413085     20.5594408303262     6.95711507932367    0.985547444509412     15.8537921524597 
18 Na      8.8765943513683     1.23206668221924     14.5774946443957    -2.02427378198129    -6.87931971637434     23.5677667090345 
19 Na     4.02970516060472      14.060150787262     8.67922492954695     22.6672189141944     19.2163427018596   -0.975211343645454 
20 Na     12.8116604015074     5.52470598535253     16.4528067825094    -10.9772244403545    -11.9854144457942    -6.24976347004517 
21 Na      15.862347683966     8.97336854896715      8.5767299324441    -24.4565465688694    -2.19189204984469     36.8273720932187 
22 Na      4.0573386131751 -0.00153239931395947     4.19169723364975   -0.450837034867892    -8.26574349266322     1.83657937638404 
23 Na    -1.53765772828681    -2.63100605238374   -0.778360017644558     9.58278776552331     7.73945746202462    -22.2966601414001 
24 Na     -1.6180221531017      11.810655903418     15.5255150007975    -1.06908972318391     -8.8800106317699     11.6389221265899 
25 Na     3.45066941059783     8.77038135371263     3.91353176047139    -9.19658278510543     32.0706302355459    -9.52162917735965 
26 Na      7.3204811523044     2.56088232869389     10.8777435013135    -13.4602490592093     12.1523975516916    -26.8168342005551 
27 Na     17.0421318673636   -0.185198314304241   -0.766105328387541    -12.3613928217846    0.586974950615556     3.51139519169091 
28 Na     7.65693560783012    -2.21810097007714     4.18512662316251    -15.1862685409613     4.93223025553316     12.8654816281884 
29 Na     12.9780925607421     15.2890776257863     11.3604042186913     4.96046874499773    0.642219096117822    -14.3615883144753 
30 Na     1.50647916698524     13.2684258073539      12.925372833509     8.75321112754881    -3.81416461325247     1.46352376013166 
31 Na     12.8751648229163     9.71227222265464     16.5285697099149    -10.1834171865561    -6.51943512073516   -0.267569674174778 
32 Na    -3.18650452760492     4.15342839225443     9.97217104893746    -20.7143199887129     17.0780903169297     1.43976991767878 
33 Na   -0.171591571111269    0.605625738626716      4.5400240161004    -1.98143171882727     2.03605798801428     1.45700858991405 
34 Na     4.07644523245791    -1.68586998505409     8.72651306861036    -5.30274384900318    -5.30183211388384     15.0174327940702 
35 Na     5.90736385413497     2.06140646233751   -0.229610394072281     -4.7805580822964   -0.903550897769925    -7.01640722607671 
36 Na     1.79452584579343     5.83825872802443   -0.726444015055007     12.0559210824942      5.0832075169025     10.0901879949141 
37 Na     12.4911445626263     7.97853977570565   -0.246748778494205     14.0466987450805     17.4606601190271    -7.21947758064935 
38 Na   0.0695325032436119     12.3370816653597     18.6679512257256     30.1506570042176    -15.3538587000119     2.39766540654499 
39 Na     5.57336270487221     7.90027195235573     18.5954287405147      -6.448515571664    -10.8032969873695    -11.7791994193242 
40 Na     8.99321317906307     15.1155121332254     6.99491649579901     1.90055707852558    -12.4571802719012    -6.19829659351208 
41 Na     6.85348468086011     16.7699974833542     1.47639965278128    -3.42145422047935     14.2931128491029     17.3598917920582 
42 Na     10.3919130422762      15.818489079569     3.94584204651298     30.6409508264762    -2.57182146604914     5.08763861405325 
43 Na    -2.65144490709572     4.19935242185585     5.73400131940156    -29.9249989346633    -10.4888377142571      8.5491806298198 
44 Na     2.07780107360668    -2.24053416346234    -3.91580343097219     3.35240903219067     3.54147472219141    -12.9075368785281 
45 Na   -0.757413550345727     14.1635649075667     3.84519884578379     8.79327320599223    -4.24998988578002    -5.73491785751365 
46 Na    -1.44236425696069    -2.87594728772778     11.0574672734017    -60.6565153547198   -0.585979678663904    -20.2200887616754 
47 Na     1.18811347074631     15.9439481208801     9.89733186517492    -11.3865090109136    -11.6294731450741     6.46020431808803 
48 Na     12.3036673761769     12.4317469995132     2.81311004277825     -8.9275494130455     10.2403140648996     -8.3734012170848 
49 Na     9.82962773264625     4.85917170571091    0.975584855422911     3.23180441125518    -3.85816596295804     27.0368949333155 
50 Na     8.17345029179766     15.1861683370231    -1.43306810702417    -4.81653173571285    -2.19788538540465    0.775064188730596 
51 Na     10.5786849633528      12.959068322371     15.7882180716083    -5.39225484977853    -1.17175633324294     1.06596716239612 
52 Na     14.3670164519051    -2.32985968858927     11.2679053597794      1.8563540892736    -7.46631439995856     24.3560230992884 
53 Na     6.76140728350574     4.03025274188865     3.20861130332912     6.82000929962331     6.50337454299158    -45.5189421525479 
54 Na     17.7362499904788     12.8626959591059    0.411360629539787     12.4400804379915     5.31783235316597     13.4069870123167 
55 Na     12.2387108606835     10.8872999068964     7.01976286463009     2.98402366231685    -10.4758423036856    -5.75599371311399 
56 Na     8.96195263815698     5.59166381223389     6.45010511918555    -15.6058147682866     29.4983571074299     2.44338198719055 
57 Na    -1.00151405294384     11.7396581412759     9.42458711116092    -11.7469991579261     29.9830943402622     29.6609485311654 
58 Na     12.6924801934334   -0.930937941304254     3.94717665102249    -8.03883632939415    -20.1710597573042     -2.1751908026952 
59 Na    0.462339581078034     11.0002184896985  -0.0484570624845966     9.30318463928253     -18.095551151508    0.448359404755306 
60 Na     17.2995588561669     16.9125358594108       2.943442410984     12.5390874972857     4.78812325757038    0.931047645787961 
61 Na      9.5249464568618     9.03103613789844     15.1351143861244    -70.6103504337124     41.9560606265866    -2.55813138269597 
62 Na     10.6358917088104     5.67236616079176     13.1345742955378     1.87416457214302    -9.90103644185345    -5.97756863720539 
63 Na     7.41849847008524     5.26569493386358    -2.51478735343632     8.11142939753601     13.9980087691959    -19.6665805809866 
64 Na     15.7839170308262    0.424647862978547     13.7061578009798      8.8225952526916     3.36972991235845     1.56000179261628 
65 Na    -1.35719313390421     8.82997809720094     5.59528928394776    -11.6671513602764    -14.8396911043374    -28.5560709179218 
66 Na      3.9657566515222     17.3770057733529     12.8211058728208    -71.2528066393391    -34.6785669744664      13.568091119284 
67 Na     3.74994283131777     4.86832211325961       11.65935456488     20.2751716921776     17.1250569732646     46.2050127677851 
68 Na    -2.43870040938932     16.8824267932861     15.5099345378122     8.01663167864064    -3.41246752176859    -7.56961771950411 
69 Na    0.247737042505578     15.2916080800098   -0.195298596174316     24.7281977354896     20.5111034454799     2.67079235935628 
70 Na     15.0761016816654     8.01823627433551     4.02594929265994     -5.6089534718049     9.09149013702777    -4.40310844660334 
71 Na    -2.53651489276122      7.7479348667905     11.6865307277861     2.22193821294213     1.08643847387454     5.00286193418417 
72 Na     6.46494515654855       7.669058889038     0.70002184782521     -4.5864132864725     17.3496096177838    -3.72465850905633 
73 Na     12.3668292610351     15.1231796378383    -1.10199517154461     16.5141563450635    -4.78622728110128    -27.7304140120268 
74 Na      5.3373818390482     5.74644371395514     7.25423497061295    -13.9135565208794     25.4214357295743     16.2825827732981 
75 Na     16.8684852416878     11.9630446237678     4.61328607384269     56.3855445954352    -4.26399456125214    -6.33662792760058 
76 Na     13.7085546317709      14.128602524948     6.47854888859922    0.472888844975236     3.79943621499908    -12.3006416599958 
77 Na     2.97800768261429     12.3215498869305     3.57927878652923     14.7567874655787     12.0088274412299    -1.77731548460338 
78 Na     2.61139226857728     2.52283306582944     7.29546629739483    -2.18963059992045    -10.7401505475754    -2.35465850717798 
79 Na     16.0282580694177     17.2131795272737    -1.87306941404933    -56.0021405500506    -72.1813842934013     21.0258050320526 
80 Na    -3.08369023491796     7.15162871156136    0.328084830633318     9.62158289985273      16.915227823771     5.53393825263714 
81 Na      15.560718527223     4.40689196500402     12.2834482090174    -4.20551595921377    -21.5622969724709    -45.9420487840803 
82 Na     15.8096077986829     4.44160896979614     2.12350689612998    -2.77859679052095     -23.459006414636    -32.1403497307902 
83 Na    -2.12426864754776     2.82383892077156    0.296590842766018    -0.98158342776977     22.5320149857609    -12.8852309741863 
84 Na     17.6355313664654     4.97823672187769     16.2078161237691     29.4237530447297    -8.64746750236911     27.6922212438836 
85 Na     13.3405100376535     3.99533905963099   -0.715254736868159    -23.4224144108838     26.9822127521191    -2.19193805325746 
86 Na     5.09911525864345     10.4068202176004    -3.03831055160462    -41.7822182821302    -21.7174125072029    -30.6308723227468 
87 Na     9.32687315005731    -2.56189327758026      8.5793613442798    -2.06055872306151    -8.38771205664259    -1.59391116959386 
88 Na   -0.279639595538295     2.40098159612995      9.8856896061665    0.664849734224597    -15.8496094497967    -15.3774443654666 
89 Na    -3.41960469161993     12.8419215171364     12.0773358859086    -8.87499480980522    -8.20395342940109    -20.0648331783493 
90 Na     14.4778322477462     5.77534482437318     8.93117901293504    -13.1051406811291    -4.05988938001172    -8.77351127460562 
91 Na      16.454291654001     12.6668877333984     17.6850146378992    -27.0765178161084    -4.50067506306779    -10.1470491729724 
92 Na     11.7260213594696    0.782664992209009     14.2056008829337     -15.116773179423     13.1380391333049    -1.80992175620393 
93 Na      16.031321566123    0.592284125909289     7.78724674045859     10.6508763513303     7.22585824395744    -6.61714723499829 
94 Na    0.847827398215991    -2.54377589609672     6.82805623924934    -7.84239144501186    -18.1141993761994    -12.8730876197468 
95 Na     11.1004412224366    -3.41079672967989     13.7991224816336    -2.89330300308024    0.225219933960773   -0.961418561753911 
96 Na     5.41320957962407     7.60612241318938      13.460434517605    -30.7520708095303    0.585762291197821    -17.8948147877971 
97 Na     12.8514334577106     17.7008045218319     1.96554657173488    -35.6740148950133     29.0724013386618    -19.5950802595604 
98 Na     8.20748747416348     1.59492344765593     6.52672971032839    -3.84990624165158      1.4498462424056     6.18825605487931 
99 Na     1.08251955774529      7.3159469639129     8.35460084343248    -4.73177396863822    -6.60259388321074     10.9582933401069 
100 Na    -3.55093123037634     15.9763330807503     8.09297996821245     4.98646030397517    -5.67396653105852    -7.23661423103412 
101 Na     15.8777878941975      8.1173410570826     15.2225620264552    -71.7851579514432     5.41427118018949    -41.2369764240901 
102 Na     1.86241651439858     5.08891021156298      3.6544884291141     25.2269904867298     12.2896551524033    -31.6002582712583 
103 Na     9.41249795489964     9.90019353728619     4.00303649246853    -10.3552030361564    -10.0858218672477    -1.25032822975548 
104 Na      5.9095138197203     11.6821090133245     0.70993721392396    -16.5953267733358    -37.4451577504448    -5.05675114840145 
105 Na     3.42190210647242     1.34271019125924     13.7361093385672     9.63149274076564     -30.052677294147     5.72063069591369 
106 Na      8.2406888439953   -0.718177520484915     12.1832884655103     4.64832533542308    -2.66938905808681     9.83552920978934 
107 Na     11.6817644088452   -0.887030202222538   -0.788185285889476    -2.80066276899339     4.70656166406585    0.782679340381816 
108 Na     1.58612768573242      10.361144499061     11.2248407955017     5.61202944569132    -11.4704887135164    -2.78173560315061 
109 Cl   -0.232405279748312     5.29021076473587     5.26836556333498    -6.29286260439678     18.5136845379971     21.3410657282049 
110 Cl     4.12697706456674     7.97593202948266       15.94582137593     5.88890703463101     2.55618737887948     11.9646664335709 
111 Cl     11.7628260537918     8.01839653948611      14.516018804036     73.6322384349716    -33.7462143534515    -34.5867249384882 
112 Cl     12.0277227112609       15.21357166509     14.0593616766399    -2.37201329776495     -3.1770019866617     12.2222267661702 
113 Cl     8.45885052450949     7.05523299641493     2.91326841779889     6.25642184564945     2.38917263803911     11.1774420825718 
114 Cl     10.8371502937411     17.0975623226544      6.7424627076794     28.1006385158447     21.4847000672192    -2.16051297030811 
115 Cl     2.96489645400546     5.47381588884744     -3.2043364001466     9.11930257514661     1.39280376989649    -21.1005536987769 
116 Cl     15.0190459768053    -1.91567373590721     8.64928803896628     1.44671115927501    -10.6893647157344    -24.0669781026397 
117 Cl     16.3091946950743     5.55569374946218   -0.490415309902024    -10.2542079889244    -2.49384454582006    -21.5820818767758 
118 Cl     5.63551237337626     10.8641050783351     3.82342637155378    -7.46346847806539    -48.1054915891794    -19.1061577663396 
119 Cl     7.18179551128348     17.7869462463102    -1.09129802829482    -4.44087067179982     28.3323901461087    -19.2960834063163 
120 Cl     11.6765700995442     13.3057383626421      8.4376033940178     -6.1720729174214     11.3781127302876      24.371810116549 
121 Cl      4.8879782061351     10.0533049102438     11.7146177589037    -12.9556533182003    -6.30552824552314   -0.151987140614964 
122 Cl    -1.79599175708644     14.4957902094483     10.1260308624511     1.81069541266274     11.3102278335753    0.757816348129123 
123 Cl    -2.77736698174457     2.60241792978027     3.08545633621037   -0.532382232902701    -1.22813004233467     11.2414996923288 
124 Cl   -0.622678397501456      11.618460827399     12.7294364484647    -28.4533541201157    -18.1007818516243    -4.46098624894054 
125 Cl     6.33669716727335     1.03530718718337     2.40351999647684     5.10270908781169    -6.51345868632861     9.58778861984936 
126 Cl     7.91188795215809     11.6879726950149     13.9192835212444      1.8810589402721     1.69314383880784     5.97079978694744 
127 Cl      16.036875646904     5.30754714575469     4.60467094372266     9.02409351011579     8.89850432866425     48.6402136798025 
128 Cl     1.53943340858925   -0.131960501045001     7.98704977492065    -2.23575541221975     15.8109470149693     11.4398132469034 
129 Cl     1.13028507090634      1.7305694236227     12.1525476294768    -12.4723829375232    -33.3983916191281    -13.1643618994983 
130 Cl     2.93571013493644     17.0086257002725     7.95262262437849     12.1599256398595     8.78442494236258    -6.98795863838182 
131 Cl     11.4015703219316    -1.89947187379562     10.9147573955135    -5.38774129114403    -1.39334581532332    -4.04829593969648 
132 Cl     0.76784828527953     15.2493963917394     18.9749680531787     84.1939693050307    -9.64739392763869     6.60789518885747 
133 Cl     17.5941744948089    -2.42640748655286    -2.46472771202057      54.549216129811     61.7900676037174    -40.4397284739392 
134 Cl     10.6168466333405     3.73592435712576     5.46177265956514     18.2205325608506    -22.3356073012418    -11.2200861072652 
135 Cl    0.301101101484809     7.84475564602378     12.4693280322238     11.0304157517294   -0.606325663757133     9.35987241309566 
136 Cl     6.09955591392052     2.76117280717188    -3.12505902868148     6.11502045637334    -10.5117976319201    -7.79175208588552 
137 Cl     -3.2608238611555     8.61933827777413     15.9274266657281     86.5623250594382     21.7970267507468     25.8242080517452 
138 Cl     8.85985686176835    -1.72525298284165     15.1985458690294     14.1317018829924    -1.67521991932941     6.52401173917839 
139 Cl     13.5390824863672     12.3047263377108     16.4795231402177     12.0787538971481     35.4177815090309    0.121245077996857 
140 Cl     10.3773866306854  -0.0726261902420628      5.7052785638209      7.7077284515474    -5.83449958104362     8.49136016914197 
141 Cl     1.72403231898221     15.0557243755714      2.5214426211193     9.68927889233404     3.62259171646305    -3.51433858877492 
142 Cl    -2.11139137356106    -1.99632684441635     13.6522201297129    -27.0522923004798     3.03520247703786     17.2012560120289 
143 Cl     2.58905790788617     2.50536927341943     4.48634636915167    0.901360030826919    -9.44514020183825    -13.9245858450991 
144 Cl      17.435717612947     17.7798454422851     17.7357862758709    -9.11799215327514     5.39974865593901     9.28180640991924 
145 Cl     9.71438923825274     2.52743877449486     12.2955512722943     31.5278705198214     15.8260852421928    -14.3058011587458 
146 Cl     2.77207527315162     3.92617585128913     14.1469503265827     118.532918399416      39.056825250857     63.6714078715446 
147 Cl     7.71440596223148     5.57544984132235     9.04516420083884     2.10472926113328     1.48685689873637     20.9229277845846 
148 Cl       2.153447390071     13.0118117105871     10.1880053393245    -25.2563234092191    -13.8473867968285     5.92469256485156 
149 Cl     10.0620434086821    -2.15242342652105     2.78424423637185     15.7635953054573    -15.9918347280297    -22.5699441365573 
150 Cl   -0.921908445231976     5.42665121149121     16.0131669683801     1.99516943492326    -2.36912278913126     6.03061222783833 
151 Cl     14.3083305007632     11.6569877356989     4.67950700903149    -49.9506321173611    -13.0948056514312     8.58746032142466 
152 Cl     13.9587305877406     1.94394094621361     11.6084713869591    -6.48681168497138    -6.16483230166295     5.71676775844967 
153 Cl     6.76793230122529     9.17633833854814     20.7593845898117    0.104914478134397     10.0324003285622     18.7973279839055 
154 Cl     8.01093001441516      7.0849903464977     13.7659010588022     21.6160672721883    -19.6453174904721    -3.98654742199377 
155 Cl    -3.57382583351509     10.3435675614595     10.3999147290235    -5.02317690940035   -0.699354380514657    -2.43902665913071 
156 Cl     11.7893777903055      9.5319722341818     2.31020092966823     3.82077830613707    -2.52709361469288    -3.62893000103433 
157 Cl     3.18410916487089     4.42111923981711     9.18032123411699    -7.21107528289149     6.06862190127724    -39.4772402644128 
158 Cl     16.6291894490587      6.4718187842848     10.5332923608975     5.74301925022529     15.5651020532971     4.61529997898451 
159 Cl     1.28491413080461     11.1357428952899     15.9912558625596    -41.8064763084145    -3.26366289141556     11.2977407107074 
160 Cl      6.0985931625992     12.7739517089496    -2.33450964662639     9.01354240376803     43.8577916287641     1.62630535432394 
161 Cl   -0.134671383078654     9.95364632462122     7.72366800455359     30.2827006275632     -14.288310948877    -9.82921861435115 
162 Cl     3.21366386265042    -1.42683753625224     14.8599220926806      3.7442391782481    -5.07583646835388     9.62893751150899 
163 Cl     -3.3820628943198     2.71151964889445     12.3745842516854     4.35417714934329    -14.0318070019902      18.588263959095 
164 Cl     17.6321853696621     10.1257679099896    0.914594600588275     -2.2611986740956    -18.8996725597505     5.47572271941899 
165 Cl     15.4341128094707     14.9331916148994     8.73201207283439    -12.3010576989307     -4.8540853717146     12.7189257889414 
166 Cl     15.1417930760707      2.0062870377129    -0.83324485536206       15.15049531187    -24.6849705895478     -2.6455690761756 
167 Cl     8.49197231903884   0.0703968067815322     9.42570151792752    -2.61071971276116     13.8877938031453    -8.95819942760957 
168 Cl     7.07488672628872     14.0399708944302     1.08692246846828     17.9847613257128     10.4270884196077     13.5016101991188 
169 Cl    -2.58392333378008     2.21648515518979     8.18053797215314    -3.80477835546147    -28.6121542441121    -29.9566853118339 
170 Cl     7.32854043371831     9.28696609415322    -2.02555742586981     11.7979859289823    -45.4424980033976     24.0065126362471 
171 Cl   -0.607126584557396     5.65672800141248    0.618938043275286    -10.4488097991879    -5.51448565953555     14.0095611738667 
172 Cl      -1.780644591845   0.0768737713354952   0.0966944801441357     20.8306197834396    -7.09841313853521     8.22518842658772 
173 Cl     15.0377044912732    -1.62619046712915     1.93499896186993    -18.1449979712594       -34.1485578908    -20.0784494680532 
174 Cl     14.2280760076629     2.91648933989574     8.13485954253762   -0.662379906153124     5.49293535020166    -12.0809005263098 
175 Cl     6.13878243163702    -2.96431061416158     12.2854123745183     73.9781689721547      34.375915512335    -28.8063975104421 
176 Cl      14.260121387084     1.33622960713712     4.17015400159265     5.01202949980135     16.2240308984875     13.3158192954768 
177 Cl     7.75489299067652     16.1886754329931     4.34255445865927    -36.2252480231773     1.17994290336513     9.10083823842277 
178 Cl    -2.05603803788234     -3.1491026271281     8.10949711709958     7.27142089679558     16.9779413113816    -6.30812240503084 
179 Cl     2.58693737628416     15.2822865625056     14.3537385721525     9.40901986672697      19.119667415775     24.6726619216243 
180 Cl     10.1703556103321     9.29799852442082     17.7494971499302     1.01841379294085     3.64319294893515     23.7908026098732 
181 Cl     11.2816707037121     3.22424299811657     15.8290430918252    -8.75459892430064    -5.62824348149717     4.90282527902645 
182 Cl     14.3077350010053     7.54748034540831     17.4443967943177     19.1700054844332     3.81976693579348     49.5432818897373 
183 Cl     10.1782742348721      13.696233158527    -2.66098465540419       23.05011407905     6.24310776088064    -11.7507274607136 
184 Cl    -1.14132654330534     13.1015460004602   -0.811787403330367    -25.3724470158996     -12.523679060482    -22.9532754925259 
185 Cl     4.90675747488898    -2.74259270305528      2.8650331950652      3.8930005185719     2.23427800865679   -0.538645849431878 
186 Cl     17.0905242110676     9.07539720480979     6.23707254326895      21.028022018782     1.42576397089116     -36.511394380004 
187 Cl     1.37649164264901     17.6980972940257    -1.59552768051425     2.40101891435997    -2.45663321262221     4.77227351312216 
188 Cl     13.4254876984746    -1.36023714578938     14.0127306859954     15.9375669995558    -22.8036685395535     11.5928755628593 
189 Cl     10.8761215367289     2.28730647703253    0.294732962518259     7.71608973243921    -9.39117656013286    -11.1229687143334 
190 Cl      3.4329867726685     13.9121039471513     5.98672580322491    -5.07414386386011    -8.03515639254039    -15.8356763419463 
191 Cl     1.09835552056585    -3.05819692871381     11.4191053428366     68.4130567486813    -2.71681173334894     4.83206992684136 
192 Cl    -1.57717010066384     17.0419099644524     1.21959908468087    -10.3055641269386    -15.7670396374058     28.3015850738921 
193 Cl     4.40412885378285     6.51049205280422     2.69903384564545     8.38684137776653    -22.4235370900089    -13.8217779523035 
194 Cl    -2.53237499985448     13.0673011565211      18.634976817346    -9.64509807431389   -0.829539232166166       11.56682825689 
195 Cl     11.1820896315546     15.0108143523029     1.32190242257467    -14.8384970354815    -6.33775544728768     14.5505615502761 
196 Cl     15.6769223051625     14.2985351457282   -0.650757759290888    -22.3659917589512     12.4410816757725    -11.0063845935023 
197 Cl     15.5097886017059     5.37825298084839     14.6931033383545     -37.508920785449     4.69399753839332     16.5484228603855 
198 Cl    -0.59129809407433     5.14788669238001     10.1392645637961     14.1707211075994     26.3742147181155   -0.472133092256112 
199 Cl     6.22336442172308     1.41819316984981     13.1870012827335    -8.20577955974095    -5.74680810204459     13.5316564118154 
200 Cl     3.03796528757821     7.35679640935603     6.23229083434812   0.0470734579305689    -6.24540192006759     13.8320583197336 
201 Cl     2.13758614486765    0.683662758381234     -2.8219238619313    -13.3046837973331    -14.9090963409839     16.8511618369423 
202 Cl     13.1457020570338    -3.52516670476522    -1.20758201080456   -0.643272544939395     5.83785114774953    -4.46314626293588 
203 Cl     6.43843813125562     3.77937709301081     5.80080639049926    -2.59488325891298    -26.5660152296033     24.2540095949078 
204 Cl     6.81009777782345     14.0855232149449     8.29604747032617   -0.929388879471194    -9.88632959168413     12.0113394084431 
205 Cl    -3.17168816278177     14.3251154076511     5.27569897997596    -8.18000414116136     13.2477231317048     12.3196449353872 
206 Cl     3.39255133290999     10.1797883241975   -0.555925657194967    -2.61561023100028    -4.39890497212394     4.00870176357989 
207 Cl     9.88552566895611     12.3177408377379     5.43045987935219    -4.41342054765339     11.1618130183309    -2.55011192818656 
208 Cl    0.818410247294388    -2.18772406433246     3.40322955548464    -42.1032654582238     26.6120189811252     55.0366998858766 
209 Cl     12.7499726714522     7.97602893545426     7.89806358431016    -5.70292952555247    0.818435948215508    -1.98506490409901 
210 Cl     14.5765039689838     16.0985943314361     3.12272150046413      19.696931137186    -38.0565334018252     26.7078717304172 
211 Cl     7.03814056675428     4.90611494395477    0.223304748768574     -14.633615685683    -17.8735819557971     7.90116865173303 
212 Cl     5.89538210777044   -0.706663287506816     6.79120248053236     6.96260174779772     3.15365559048878     -13.937146048686 
213 Cl    0.971245442966392     10.5943339224912     2.87420282588961    -22.2542812114895    -18.0469510782523    0.893607001104479 
214 Cl    -3.27196192644105     13.9509452597656     14.5654937453523    -9.85814951371432     22.5523511726159     22.0843691498053 
215 Cl     10.3089694334665     6.48620638558959    -1.19054936195019    -7.15087774973469      6.7028489358567    -30.5145130596487 
216 Cl     13.1519100175356     5.99072519649492      1.7401695166466    -2.59068578374218    -5.10246263528078     8.86351025054933 
