LAMMPS data file via write_data, version 16 Mar 2018, timestep = 10000

216 atoms
2 atom types

-3.6981923812518023e+00 1.7798693381161936e+01 xlo xhi
-3.6981923812518023e+00 1.7798693381161936e+01 ylo yhi
-2.3698192381251804e+01 3.7798693381161939e+01 zlo zhi

Masses

1 35.453
2 22.9898


Atoms # full

201 1 1 -1.0000000000000000e+00 2.1375861448676452e+00 6.8366275838123380e-01 -2.8219238619312987e+00 0 0 0
35 1 2 1.0000000000000000e+00 5.9073638541349727e+00 2.0614064623375064e+00 -2.2961039407228079e-01 0 1 1
2 1 2 1.0000000000000000e+00 3.4419248040321229e+00 2.5736833161747938e+00 -4.3303904144449819e+00 -1 0 0
136 1 1 -1.0000000000000000e+00 6.0995559139205211e+00 2.7611728071718820e+00 -3.1250590286814846e+00 0 1 0
63 1 2 1.0000000000000000e+00 7.4184984700852352e+00 5.2656949338635846e+00 -2.5147873534363230e+00 0 0 0
23 1 2 1.0000000000000000e+00 -1.5376577282868140e+00 -2.6310060523837420e+00 -7.7836001764455820e-01 1 0 0
172 1 1 -1.0000000000000000e+00 -1.7806445918450045e+00 7.6873771335495181e-02 9.6694480144135744e-02 0 0 0
27 1 2 1.0000000000000000e+00 1.7042131867363594e+01 -1.8519831430424144e-01 -7.6610532838754108e-01 -1 0 -1
33 1 2 1.0000000000000000e+00 -1.7159157111126921e-01 6.0562573862671609e-01 4.5400240161003982e+00 0 1 1
4 1 2 1.0000000000000000e+00 9.6316481674647569e+00 7.5373725783874768e-01 2.4268477650821194e+00 -1 0 0
185 1 1 -1.0000000000000000e+00 4.9067574748889751e+00 -2.7425927030552777e+00 2.8650331950651973e+00 1 0 0
44 1 2 1.0000000000000000e+00 2.0778010736066785e+00 -2.2405341634623430e+00 -3.9158034309721930e+00 -1 0 0
107 1 2 1.0000000000000000e+00 1.1681764408845153e+01 -8.8703020222253759e-01 -7.8818528588947623e-01 0 2 0
85 1 2 1.0000000000000000e+00 1.3340510037653496e+01 3.9953390596309935e+00 -7.1525473686815899e-01 0 0 1
149 1 1 -1.0000000000000000e+00 1.0062043408682133e+01 -2.1524234265210542e+00 2.7842442363718498e+00 0 0 1
189 1 1 -1.0000000000000000e+00 1.0876121536728851e+01 2.2873064770325304e+00 2.9473296251825942e-01 0 0 1
133 1 1 -1.0000000000000000e+00 1.7594174494808879e+01 -2.4264074865528555e+00 -2.4647277120205722e+00 -1 1 0
173 1 1 -1.0000000000000000e+00 1.5037704491273164e+01 -1.6261904671291503e+00 1.9349989618699310e+00 0 1 1
79 1 2 1.0000000000000000e+00 1.6028258069417696e+01 1.7213179527273745e+01 -1.8730694140493296e+00 0 -2 0
171 1 1 -1.0000000000000000e+00 -6.0712658455739577e-01 5.6567280014124810e+00 6.1893804327528645e-01 0 1 0
83 1 2 1.0000000000000000e+00 -2.1242686475477628e+00 2.8238389207715615e+00 2.9659084276601833e-01 1 -1 1
193 1 1 -1.0000000000000000e+00 4.4041288537828498e+00 6.5104920528042163e+00 2.6990338456454541e+00 0 0 0
211 1 1 -1.0000000000000000e+00 7.0381405667542767e+00 4.9061149439547718e+00 2.2330474876857362e-01 -1 0 1
215 1 1 -1.0000000000000000e+00 1.0308969433466457e+01 6.4862063855895942e+00 -1.1905493619501852e+00 -1 1 1
166 1 1 -1.0000000000000000e+00 1.5141793076070671e+01 2.0062870377128994e+00 -8.3324485536205972e-01 0 2 0
37 1 2 1.0000000000000000e+00 1.2491144562626266e+01 7.9785397757056531e+00 -2.4674877849420479e-01 -1 0 0
117 1 1 -1.0000000000000000e+00 1.6309194695074350e+01 5.5556937494621792e+00 -4.9041530990202381e-01 0 0 1
36 1 2 1.0000000000000000e+00 1.7945258457934341e+00 5.8382587280244254e+00 -7.2644401505500689e-01 0 0 1
184 1 1 -1.0000000000000000e+00 -1.1413265433053355e+00 1.3101546000460218e+01 -8.1178740333036725e-01 0 0 0
115 1 1 -1.0000000000000000e+00 2.9648964540054559e+00 5.4738158888474375e+00 -3.2043364001466004e+00 0 0 0
170 1 1 -1.0000000000000000e+00 7.3285404337183131e+00 9.2869660941532217e+00 -2.0255574258698132e+00 0 1 1
72 1 2 1.0000000000000000e+00 6.4649451565485503e+00 7.6690588890380038e+00 7.0002184782521037e-01 -1 -1 1
160 1 1 -1.0000000000000000e+00 6.0985931625991965e+00 1.2773951708949630e+01 -2.3345096466263877e+00 1 0 0
86 1 2 1.0000000000000000e+00 5.0991152586434518e+00 1.0406820217600394e+01 -3.0383105516046194e+00 1 0 -1
206 1 1 -1.0000000000000000e+00 3.3925513329099912e+00 1.0179788324197530e+01 -5.5592565719496723e-01 0 0 0
104 1 2 1.0000000000000000e+00 5.9095138197203019e+00 1.1682109013324460e+01 7.0993721392396036e-01 0 -1 1
1 1 2 1.0000000000000000e+00 9.0105517682227578e+00 1.1193977930500401e+01 -2.9438895893823043e+00 -1 0 0
183 1 1 -1.0000000000000000e+00 1.0178274234872061e+01 1.3696233158526962e+01 -2.6609846554041896e+00 1 -1 0
48 1 2 1.0000000000000000e+00 1.2303667376176932e+01 1.2431746999513159e+01 2.8131100427782538e+00 0 -1 0
80 1 2 1.0000000000000000e+00 -3.0836902349179556e+00 7.1516287115613606e+00 3.2808483063331828e-01 0 0 0
192 1 1 -1.0000000000000000e+00 -1.5771701006638421e+00 1.7041909964452355e+01 1.2195990846808700e+00 1 -1 1
69 1 2 1.0000000000000000e+00 2.4773704250557846e-01 1.5291608080009777e+01 -1.9529859617431616e-01 0 0 0
50 1 2 1.0000000000000000e+00 8.1734502917976570e+00 1.5186168337023128e+01 -1.4330681070241693e+00 -1 0 0
168 1 1 -1.0000000000000000e+00 7.0748867262887183e+00 1.4039970894430192e+01 1.0869224684682839e+00 0 0 1
119 1 1 -1.0000000000000000e+00 7.1817955112834753e+00 1.7786946246310176e+01 -1.0912980282948224e+00 0 -1 2
202 1 1 -1.0000000000000000e+00 1.3145702057033784e+01 -3.5251667047652209e+00 -1.2075820108045623e+00 0 1 1
41 1 2 1.0000000000000000e+00 6.8534846808601051e+00 1.6769997483354228e+01 1.4763996527812842e+00 0 0 1
54 1 2 1.0000000000000000e+00 1.7736249990478836e+01 1.2862695959105931e+01 4.1136062953978675e-01 0 -1 1
73 1 2 1.0000000000000000e+00 1.2366829261035139e+01 1.5123179637838323e+01 -1.1019951715446121e+00 0 -1 1
196 1 1 -1.0000000000000000e+00 1.5676922305162471e+01 1.4298535145728160e+01 -6.5075775929088797e-01 0 0 0
5 1 2 1.0000000000000000e+00 1.6541050801479695e+01 3.8022614390346976e-01 2.7694367959558570e+00 -2 0 0
187 1 1 -1.0000000000000000e+00 1.3764916426490104e+00 1.7698097294025676e+01 -1.5955276805142484e+00 1 -1 0
56 1 2 1.0000000000000000e+00 8.9619526381569781e+00 5.5916638122338913e+00 6.4501051191855465e+00 0 0 0
22 1 2 1.0000000000000000e+00 4.0573386131751041e+00 -1.5323993139594733e-03 4.1916972336497471e+00 -1 1 -1
6 1 2 1.0000000000000000e+00 2.2983398783934628e+00 -3.1073535218955026e+00 1.5382199568141397e+00 0 0 -1
208 1 1 -1.0000000000000000e+00 8.1841024729438838e-01 -2.1877240643324622e+00 3.4032295554846366e+00 0 1 0
125 1 1 -1.0000000000000000e+00 6.3366971672733481e+00 1.0353071871833741e+00 2.4035199964768443e+00 -1 0 1
97 1 2 1.0000000000000000e+00 1.2851433457710590e+01 1.7700804521831895e+01 1.9655465717348837e+00 0 0 0
98 1 2 1.0000000000000000e+00 8.2074874741634787e+00 1.5949234476559317e+00 6.5267297103283921e+00 0 1 0
212 1 1 -1.0000000000000000e+00 5.8953821077704394e+00 -7.0666328750681628e-01 6.7912024805323634e+00 0 1 1
140 1 1 -1.0000000000000000e+00 1.0377386630685390e+01 -7.2626190242062835e-02 5.7052785638208965e+00 -1 1 0
203 1 1 -1.0000000000000000e+00 6.4384381312556176e+00 3.7793770930108104e+00 5.8008063904992602e+00 0 0 0
58 1 2 1.0000000000000000e+00 1.2692480193433365e+01 -9.3093794130425411e-01 3.9471766510224882e+00 0 0 0
123 1 1 -1.0000000000000000e+00 -2.7773669817445685e+00 2.6024179297802732e+00 3.0854563362103695e+00 0 1 0
43 1 2 1.0000000000000000e+00 -2.6514449070957231e+00 4.1993524218558500e+00 5.7340013194015649e+00 1 0 0
102 1 2 1.0000000000000000e+00 1.8624165143985765e+00 5.0889102115629754e+00 3.6544884291141018e+00 0 1 0
113 1 1 -1.0000000000000000e+00 8.4588505245094900e+00 7.0552329964149294e+00 2.9132684177988901e+00 0 -1 0
143 1 1 -1.0000000000000000e+00 2.5890579078861675e+00 2.5053692734194346e+00 4.4863463691516730e+00 0 0 0
76 1 2 1.0000000000000000e+00 1.3708554631770861e+01 1.4128602524947972e+01 6.4785488885992217e+00 1 0 -1
60 1 2 1.0000000000000000e+00 1.7299558856166879e+01 1.6912535859410848e+01 2.9434424109840007e+00 -1 -1 1
53 1 2 1.0000000000000000e+00 6.7614072835057373e+00 4.0302527418886491e+00 3.2086113033291213e+00 1 0 1
49 1 2 1.0000000000000000e+00 9.8296277326462480e+00 4.8591717057109056e+00 9.7558485542291129e-01 0 0 0
134 1 1 -1.0000000000000000e+00 1.0616846633340547e+01 3.7359243571257599e+00 5.4617726595651437e+00 -1 0 0
216 1 1 -1.0000000000000000e+00 1.3151910017535609e+01 5.9907251964949166e+00 1.7401695166465956e+00 -1 1 0
82 1 2 1.0000000000000000e+00 1.5809607798682910e+01 4.4416089697961443e+00 2.1235068961299821e+00 1 0 0
176 1 1 -1.0000000000000000e+00 1.4260121387084039e+01 1.3362296071371207e+00 4.1701540015926524e+00 0 1 0
156 1 1 -1.0000000000000000e+00 1.1789377790305524e+01 9.5319722341817990e+00 2.3102009296682291e+00 0 -1 0
14 1 2 1.0000000000000000e+00 1.3222834831451657e+01 4.0100791229591639e+00 4.0759654773047167e+00 -1 -1 -1
127 1 1 -1.0000000000000000e+00 1.6036875646904008e+01 5.3075471457546852e+00 4.6046709437226596e+00 0 0 0
109 1 1 -1.0000000000000000e+00 -2.3240527974831210e-01 5.2902107647358676e+00 5.2683655633349789e+00 0 0 0
213 1 1 -1.0000000000000000e+00 9.7124544296639215e-01 1.0594333922491169e+01 2.8742028258896140e+00 1 0 1
65 1 2 1.0000000000000000e+00 -1.3571931339042118e+00 8.8299780972009447e+00 5.5952892839477633e+00 0 0 0
25 1 2 1.0000000000000000e+00 3.4506694105978313e+00 8.7703813537126258e+00 3.9135317604713911e+00 1 0 0
103 1 2 1.0000000000000000e+00 9.4124979548996421e+00 9.9001935372861869e+00 4.0030364924685333e+00 0 0 0
118 1 1 -1.0000000000000000e+00 5.6355123733762582e+00 1.0864105078335063e+01 3.8234263715537797e+00 -1 0 0
114 1 1 -1.0000000000000000e+00 1.0837150293741111e+01 1.7097562322654436e+01 6.7424627076794028e+00 -1 -1 0
151 1 1 -1.0000000000000000e+00 1.4308330500763159e+01 1.1656987735698904e+01 4.6795070090314885e+00 0 0 0
207 1 1 -1.0000000000000000e+00 9.8855256689561060e+00 1.2317740837737896e+01 5.4304598793521883e+00 0 0 0
205 1 1 -1.0000000000000000e+00 -3.1716881627817681e+00 1.4325115407651079e+01 5.2756989799759602e+00 0 0 -1
164 1 1 -1.0000000000000000e+00 1.7632185369662135e+01 1.0125767909989625e+01 9.1459460058827469e-01 0 0 0
186 1 1 -1.0000000000000000e+00 1.7090524211067589e+01 9.0753972048097857e+00 6.2370725432689520e+00 0 -1 0
70 1 2 1.0000000000000000e+00 1.5076101681665408e+01 8.0182362743355089e+00 4.0259492926599387e+00 0 1 0
59 1 2 1.0000000000000000e+00 4.6233958107803408e-01 1.1000218489698520e+01 -4.8457062484596553e-02 1 0 0
45 1 2 1.0000000000000000e+00 -7.5741355034572722e-01 1.4163564907566688e+01 3.8451988457837922e+00 0 -1 0
141 1 1 -1.0000000000000000e+00 1.7240323189822120e+00 1.5055724375571360e+01 2.5214426211193026e+00 0 0 0
200 1 1 -1.0000000000000000e+00 3.0379652875782091e+00 7.3567964093560319e+00 6.2322908343481211e+00 1 0 0
190 1 1 -1.0000000000000000e+00 3.4329867726684982e+00 1.3912103947151319e+01 5.9867258032249069e+00 0 -1 1
10 1 2 1.0000000000000000e+00 6.4819623609000088e+00 1.3112468574620575e+01 4.8379315669751515e+00 1 0 0
77 1 2 1.0000000000000000e+00 2.9780076826142854e+00 1.2321549886930535e+01 3.5792787865292257e+00 0 -1 0
16 1 2 1.0000000000000000e+00 3.5865569024492818e+00 1.6699032151137519e+01 4.7862576922447175e+00 0 -1 0
195 1 1 -1.0000000000000000e+00 1.1182089631554586e+01 1.5010814352302944e+01 1.3219024225746747e+00 0 0 0
42 1 2 1.0000000000000000e+00 1.0391913042276183e+01 1.5818489079568959e+01 3.9458420465129804e+00 -1 0 0
28 1 2 1.0000000000000000e+00 7.6569356078301212e+00 -2.2181009700771379e+00 4.1851266231625051e+00 -1 2 -1
177 1 1 -1.0000000000000000e+00 7.7548929906765203e+00 1.6188675432993147e+01 4.3425544586592713e+00 -1 -1 0
210 1 1 -1.0000000000000000e+00 1.4576503968983772e+01 1.6098594331436114e+01 3.1227215004641313e+00 0 0 0
75 1 2 1.0000000000000000e+00 1.6868485241687775e+01 1.1963044623767825e+01 4.6132860738426906e+00 -1 -1 0
40 1 2 1.0000000000000000e+00 8.9932131790630674e+00 1.5115512133225376e+01 6.9949164957990142e+00 1 -1 -1
55 1 2 1.0000000000000000e+00 1.2238710860683462e+01 1.0887299906896358e+01 7.0197628646300911e+00 -1 -1 -1
94 1 2 1.0000000000000000e+00 8.4782739821599051e-01 -2.5437758960967152e+00 6.8280562392493396e+00 0 1 0
46 1 2 1.0000000000000000e+00 -1.4423642569606918e+00 -2.8759472877277825e+00 1.1057467273401658e+01 0 -1 0
178 1 1 -1.0000000000000000e+00 -2.0560380378823444e+00 -3.1491026271281011e+00 8.1094971170995791e+00 0 0 1
144 1 1 -1.0000000000000000e+00 1.7435717612946998e+01 1.7779845442285080e+01 1.7735786275870904e+01 -1 -1 0
209 1 1 -1.0000000000000000e+00 1.2749972671452179e+01 7.9760289354542584e+00 7.8980635843101572e+00 0 0 0
7 1 2 1.0000000000000000e+00 5.8509998278003406e-01 -1.2622907058411779e+00 1.3645705884827981e+01 0 0 0
128 1 1 -1.0000000000000000e+00 1.5394334085892483e+00 -1.3196050104500148e-01 7.9870497749206502e+00 0 1 0
34 1 2 1.0000000000000000e+00 4.0764452324579086e+00 -1.6858699850540935e+00 8.7265130686103607e+00 0 1 1
167 1 1 -1.0000000000000000e+00 8.4919723190388385e+00 7.0396806781532206e-02 9.4257015179275232e+00 0 0 0
78 1 2 1.0000000000000000e+00 2.6113922685772764e+00 2.5228330658294369e+00 7.2954662973948281e+00 1 1 0
87 1 2 1.0000000000000000e+00 9.3268731500573150e+00 -2.5618932775802641e+00 8.5793613442798033e+00 0 1 0
175 1 1 -1.0000000000000000e+00 6.1387824316370212e+00 -2.9643106141615831e+00 1.2285412374518275e+01 0 1 0
131 1 1 -1.0000000000000000e+00 1.1401570321931647e+01 -1.8994718737956198e+00 1.0914757395513451e+01 0 0 0
152 1 1 -1.0000000000000000e+00 1.3958730587740568e+01 1.9439409462136081e+00 1.1608471386959105e+01 0 0 0
52 1 2 1.0000000000000000e+00 1.4367016451905089e+01 -2.3298596885892660e+00 1.1267905359779444e+01 0 0 -1
3 1 2 1.0000000000000000e+00 1.1629216650829502e+01 1.3362267515275115e+00 8.4939009866282937e+00 0 0 -1
32 1 2 1.0000000000000000e+00 -3.1865045276049244e+00 4.1534283922544306e+00 9.9721710489374562e+00 0 1 0
169 1 1 -1.0000000000000000e+00 -2.5839233337800831e+00 2.2164851551897899e+00 8.1805379721531359e+00 1 0 1
198 1 1 -1.0000000000000000e+00 -5.9129809407432965e-01 5.1478866923800082e+00 1.0139264563796075e+01 0 0 0
99 1 2 1.0000000000000000e+00 1.0825195577452920e+00 7.3159469639128973e+00 8.3546008434324825e+00 1 1 -1
88 1 2 1.0000000000000000e+00 -2.7963959553829509e-01 2.4009815961299474e+00 9.8856896061664976e+00 1 0 0
74 1 2 1.0000000000000000e+00 5.3373818390481995e+00 5.7464437139551352e+00 7.2542349706129494e+00 0 0 0
147 1 1 -1.0000000000000000e+00 7.7144059622314849e+00 5.5754498413223494e+00 9.0451642008388404e+00 1 0 0
157 1 1 -1.0000000000000000e+00 3.1841091648708861e+00 4.4211192398171111e+00 9.1803212341169917e+00 0 0 -1
67 1 2 1.0000000000000000e+00 3.7499428313177656e+00 4.8683221132596115e+00 1.1659354564880008e+01 1 0 0
26 1 2 1.0000000000000000e+00 7.3204811523044020e+00 2.5608823286938898e+00 1.0877743501313487e+01 -1 1 0
21 1 2 1.0000000000000000e+00 1.5862347683965979e+01 8.9733685489671480e+00 8.5767299324441009e+00 0 0 0
199 1 1 -1.0000000000000000e+00 6.2233644217230752e+00 1.4181931698498069e+00 1.3187001282733538e+01 1 -1 -1
174 1 1 -1.0000000000000000e+00 1.4228076007662942e+01 2.9164893398957434e+00 8.1348595425376153e+00 0 0 -1
163 1 1 -1.0000000000000000e+00 -3.3820628943197959e+00 2.7115196488944537e+00 1.2374584251685414e+01 0 0 0
81 1 2 1.0000000000000000e+00 1.5560718527223028e+01 4.4068919650040170e+00 1.2283448209017445e+01 0 0 0
161 1 1 -1.0000000000000000e+00 -1.3467138307865387e-01 9.9536463246212179e+00 7.7236680045535850e+00 0 0 -1
57 1 2 1.0000000000000000e+00 -1.0015140529438378e+00 1.1739658141275889e+01 9.4245871111609176e+00 1 0 1
71 1 2 1.0000000000000000e+00 -2.5365148927612249e+00 7.7479348667904997e+00 1.1686530727786149e+01 0 0 0
19 1 2 1.0000000000000000e+00 4.0297051606047178e+00 1.4060150787261980e+01 8.6792249295469528e+00 0 -1 0
121 1 1 -1.0000000000000000e+00 4.8879782061350978e+00 1.0053304910243796e+01 1.1714617758903684e+01 -1 0 -1
204 1 1 -1.0000000000000000e+00 6.8100977778234499e+00 1.4085523214944869e+01 8.2960474703261653e+00 1 0 0
15 1 2 1.0000000000000000e+00 7.0270315992488861e+00 1.1802040377355025e+01 1.0995557406535516e+01 -1 0 -1
12 1 2 1.0000000000000000e+00 -1.6954197199982206e+00 1.5822935995034275e+01 1.8797965862070754e+01 0 -1 0
126 1 1 -1.0000000000000000e+00 7.9118879521580894e+00 1.1687972695014931e+01 1.3919283521244390e+01 0 0 1
130 1 1 -1.0000000000000000e+00 2.9357101349364445e+00 1.7008625700272535e+01 7.9526226243784883e+00 0 0 0
158 1 1 -1.0000000000000000e+00 1.6629189449058721e+01 6.4718187842848005e+00 1.0533292360897546e+01 -1 0 0
29 1 2 1.0000000000000000e+00 1.2978092560742091e+01 1.5289077625786284e+01 1.1360404218691263e+01 -1 0 0
155 1 1 -1.0000000000000000e+00 -3.5738258335150914e+00 1.0343567561459496e+01 1.0399914729023477e+01 1 -1 0
100 1 2 1.0000000000000000e+00 -3.5509312303763383e+00 1.5976333080750274e+01 8.0929799682124504e+00 2 -1 0
93 1 2 1.0000000000000000e+00 1.6031321566122998e+01 5.9228412590928881e-01 7.7872467404585901e+00 0 1 1
148 1 1 -1.0000000000000000e+00 2.1534473900709989e+00 1.3011811710587120e+01 1.0188005339324492e+01 0 0 -1
122 1 1 -1.0000000000000000e+00 -1.7959917570864374e+00 1.4495790209448300e+01 1.0126030862451067e+01 0 0 0
30 1 2 1.0000000000000000e+00 1.5064791669852391e+00 1.3268425807353868e+01 1.2925372833508989e+01 0 -1 -1
191 1 1 -1.0000000000000000e+00 1.0983555205658460e+00 -3.0581969287138118e+00 1.1419105342836616e+01 0 0 0
116 1 1 -1.0000000000000000e+00 1.5019045976805312e+01 -1.9156737359072098e+00 8.6492880389662812e+00 0 1 0
47 1 2 1.0000000000000000e+00 1.1881134707463135e+00 1.5943948120880119e+01 9.8973318651749196e+00 0 -1 1
112 1 1 -1.0000000000000000e+00 1.2027722711260886e+01 1.5213571665089953e+01 1.4059361676639865e+01 0 -1 -1
165 1 1 -1.0000000000000000e+00 1.5434112809470703e+01 1.4933191614899370e+01 8.7320120728343866e+00 0 -1 0
120 1 1 -1.0000000000000000e+00 1.1676570099544199e+01 1.3305738362642069e+01 8.4376033940177955e+00 0 0 -1
89 1 2 1.0000000000000000e+00 -3.4196046916199325e+00 1.2841921517136388e+01 1.2077335885908564e+01 1 0 -1
129 1 1 -1.0000000000000000e+00 1.1302850709063430e+00 1.7305694236226958e+00 1.2152547629476782e+01 1 0 -1
162 1 1 -1.0000000000000000e+00 3.2136638626504186e+00 -1.4268375362522352e+00 1.4859922092680570e+01 0 1 0
106 1 2 1.0000000000000000e+00 8.2406888439952990e+00 -7.1817752048491468e-01 1.2183288465510250e+01 1 0 1
13 1 2 1.0000000000000000e+00 6.0758035296222390e+00 -2.3589034491246847e+00 1.5221984925107991e+01 0 0 0
138 1 1 -1.0000000000000000e+00 8.8598568617683515e+00 -1.7252529828416527e+00 1.5198545869029386e+01 -1 1 -1
92 1 2 1.0000000000000000e+00 1.1726021359469577e+01 7.8266499220900898e-01 1.4205600882933652e+01 0 0 -1
68 1 2 1.0000000000000000e+00 -2.4387004093893245e+00 1.6882426793286129e+01 1.5509934537812216e+01 0 0 -1
188 1 1 -1.0000000000000000e+00 1.3425487698474601e+01 -1.3602371457893760e+00 1.4012730685995361e+01 1 0 -1
142 1 1 -1.0000000000000000e+00 -2.1113913735610574e+00 -1.9963268444163500e+00 1.3652220129712919e+01 0 1 1
9 1 2 1.0000000000000000e+00 3.7096120181127717e-01 4.0915543314990623e+00 1.3630113997632726e+01 0 0 0
150 1 1 -1.0000000000000000e+00 -9.2190844523197635e-01 5.4266512114912100e+00 1.6013166968380087e+01 0 -1 -1
146 1 1 -1.0000000000000000e+00 2.7720752731516249e+00 3.9261758512891345e+00 1.4146950326582699e+01 0 0 0
105 1 2 1.0000000000000000e+00 3.4219021064724249e+00 1.3427101912592407e+00 1.3736109338567244e+01 1 1 0
18 1 2 1.0000000000000000e+00 8.8765943513682988e+00 1.2320666822192419e+00 1.4577494644395747e+01 -1 0 -1
154 1 1 -1.0000000000000000e+00 8.0109300144151590e+00 7.0849903464977020e+00 1.3765901058802154e+01 1 0 0
17 1 2 1.0000000000000000e+00 9.7154206203393318e+00 9.3630210413084960e+00 2.0559440830326249e+01 0 0 -1
181 1 1 -1.0000000000000000e+00 1.1281670703712081e+01 3.2242429981165652e+00 1.5829043091825222e+01 0 -1 -1
145 1 1 -1.0000000000000000e+00 9.7143892382527444e+00 2.5274387744948643e+00 1.2295551272294306e+01 -1 0 -1
62 1 2 1.0000000000000000e+00 1.0635891708810396e+01 5.6723661607917641e+00 1.3134574295537828e+01 0 1 -1
84 1 2 1.0000000000000000e+00 1.7635531366465408e+01 4.9782367218776882e+00 1.6207816123769074e+01 -1 0 0
197 1 1 -1.0000000000000000e+00 1.5509788601705901e+01 5.3782529808483863e+00 1.4693103338354511e+01 0 0 0
64 1 2 1.0000000000000000e+00 1.5783917030826245e+01 4.2464786297854706e-01 1.3706157800979778e+01 -1 0 -1
135 1 1 -1.0000000000000000e+00 3.0110110148480912e-01 7.8447556460237786e+00 1.2469328032223828e+01 1 0 0
8 1 2 1.0000000000000000e+00 1.3484581479704651e+00 7.4345426108931179e+00 1.5759861050273612e+01 0 0 0
96 1 2 1.0000000000000000e+00 5.4132095796240742e+00 7.6061224131893805e+00 1.3460434517605050e+01 1 0 0
110 1 1 -1.0000000000000000e+00 4.1269770645667423e+00 7.9759320294826610e+00 1.5945821375930048e+01 -1 0 -1
153 1 1 -1.0000000000000000e+00 6.7679323012252937e+00 9.1763383385481365e+00 2.0759384589811727e+01 0 0 1
108 1 2 1.0000000000000000e+00 1.5861276857324209e+00 1.0361144499061036e+01 1.1224840795501695e+01 2 0 1
180 1 1 -1.0000000000000000e+00 1.0170355610332056e+01 9.2979985244208230e+00 1.7749497149930214e+01 0 -1 0
61 1 2 1.0000000000000000e+00 9.5249464568617981e+00 9.0310361378984396e+00 1.5135114386124444e+01 -1 1 0
51 1 2 1.0000000000000000e+00 1.0578684963352790e+01 1.2959068322371008e+01 1.5788218071608300e+01 -1 -1 -1
31 1 2 1.0000000000000000e+00 1.2875164822916284e+01 9.7122722226546419e+00 1.6528569709914855e+01 -2 0 0
111 1 1 -1.0000000000000000e+00 1.1762826053791782e+01 8.0183965394861119e+00 1.4516018804036017e+01 -1 0 -1
137 1 1 -1.0000000000000000e+00 -3.2608238611554992e+00 8.6193382777741299e+00 1.5927426665728094e+01 1 0 -1
101 1 2 1.0000000000000000e+00 1.5877787894197475e+01 8.1173410570826015e+00 1.5222562026455158e+01 0 0 0
194 1 1 -1.0000000000000000e+00 -2.5323749998544773e+00 1.3067301156521118e+01 1.8634976817345997e+01 1 0 0
124 1 1 -1.0000000000000000e+00 -6.2267839750145559e-01 1.1618460827398984e+01 1.2729436448464712e+01 0 -1 0
24 1 2 1.0000000000000000e+00 -1.6180221531017047e+00 1.1810655903418034e+01 1.5525515000797510e+01 1 0 0
179 1 1 -1.0000000000000000e+00 2.5869373762841574e+00 1.5282286562505616e+01 1.4353738572152455e+01 0 0 0
11 1 2 1.0000000000000000e+00 3.8733136311180578e+00 1.1151403472417872e+01 1.5586407893841798e+01 0 1 0
66 1 2 1.0000000000000000e+00 3.9657566515222045e+00 1.7377005773352902e+01 1.2821105872820755e+01 0 0 0
95 1 2 1.0000000000000000e+00 1.1100441222436642e+01 -3.4107967296798867e+00 1.3799122481633587e+01 0 0 0
139 1 1 -1.0000000000000000e+00 1.3539082486367249e+01 1.2304726337710846e+01 1.6479523140217704e+01 0 0 -1
91 1 2 1.0000000000000000e+00 1.6454291654001029e+01 1.2666887733398445e+01 1.7685014637899219e+01 1 0 0
214 1 1 -1.0000000000000000e+00 -3.2719619264410529e+00 1.3950945259765639e+01 1.4565493745352343e+01 1 0 0
182 1 1 -1.0000000000000000e+00 1.4307735001005327e+01 7.5474803454083075e+00 1.7444396794317711e+01 0 0 0
20 1 2 1.0000000000000000e+00 1.2811660401507355e+01 5.5247059853525338e+00 1.6452806782509406e+01 0 1 0
39 1 2 1.0000000000000000e+00 5.5733627048722116e+00 7.9002719523557268e+00 1.8595428740514695e+01 0 0 -1
38 1 2 1.0000000000000000e+00 6.9532503243611890e-02 1.2337081665359715e+01 1.8667951225725581e+01 0 -1 -1
132 1 1 -1.0000000000000000e+00 7.6784828527953042e-01 1.5249396391739369e+01 1.8974968053178724e+01 1 -1 0
159 1 1 -1.0000000000000000e+00 1.2849141308046139e+00 1.1135742895289896e+01 1.5991255862559578e+01 0 -1 0
90 1 2 1.0000000000000000e+00 1.4477832247746168e+01 5.7753448243731826e+00 8.9311790129350435e+00 0 1 0

Velocities

201 -2.3689137961254185e-03 -5.1014127956785990e-03 -1.1093553639818815e-02
35 -1.2219052972911974e-03 1.5072135886190123e-03 6.1999625808529793e-03
2 -1.3500783421012824e-02 -8.9610731308171383e-03 1.0183048003690051e-03
136 8.1873057126940641e-03 -3.8837667188109846e-03 1.1839974600307527e-02
63 1.7565177504022488e-03 5.4093065158376122e-03 -6.3732366210922887e-03
23 -8.0826888487791470e-03 -6.2753833630418586e-03 2.8332864166212908e-03
172 3.1454846624825619e-03 -2.2328113903686019e-03 1.5620974157907815e-03
27 2.7586510115694880e-03 -3.4101755130769005e-03 9.9755314426673708e-03
33 9.4112993559297578e-04 -7.5603016649748202e-04 -2.1195539609219624e-03
4 1.0328197781176532e-02 3.6379143262105190e-03 4.9289610711053967e-03
185 9.3627955226930886e-03 3.7167786470161584e-05 1.3097172542210269e-04
44 1.3405878032533467e-04 5.2600396684780292e-03 5.6233378597005546e-03
107 -4.3899743785705275e-04 1.0366478895885334e-04 2.2438319093030738e-03
85 1.7020442432509740e-02 -1.0106220374771678e-02 -2.1330411829236686e-04
149 1.4424449162884634e-02 -6.6080021144698294e-03 -1.6944660274622911e-03
189 -2.1793264834522926e-03 4.1715048992246032e-04 5.8169820921047770e-03
133 3.3264343523964515e-03 2.2919692870422793e-03 -2.6034613729413636e-03
173 2.9018118953759446e-03 1.3505587083995347e-03 -2.6571678873310027e-03
79 6.1113396177801425e-03 -7.6530746093617585e-04 -9.0164331241475784e-03
171 -4.3194995831363214e-03 2.8552861592695835e-03 8.5289320961523304e-03
83 1.5692931139313986e-03 4.6826997180609420e-04 3.1005111505958073e-03
193 5.4153591668630856e-03 1.5868665106000296e-03 4.0484459391061335e-03
211 4.7240793049928712e-03 -2.3309713461423724e-03 -6.0518342280971348e-03
215 -4.2950843811592233e-03 4.2397885597482638e-03 1.0461241190149967e-02
166 7.4983828587152036e-03 7.7089820877600862e-03 -2.8432715166741823e-03
37 -9.4414146542500452e-03 2.1302868926314765e-04 2.7207956677538368e-03
117 -2.7534091598289110e-03 9.2286982424484305e-04 2.1551051059792528e-03
36 1.5778530982204837e-02 5.4710580256816434e-03 8.6295735434918589e-03
184 9.9073500077888040e-04 1.7977029728999867e-03 -1.2897870588090840e-03
115 3.3634867195307251e-03 -2.6256225288798954e-03 -1.1011929846625767e-03
170 -7.2834214613960923e-03 2.9234284944125487e-04 -1.1255533818657980e-02
72 4.6280955873082051e-03 -3.7521760168463722e-03 5.6207221624416572e-03
160 -4.1024217959718832e-03 -2.3581104203607896e-03 1.1408738786787866e-02
86 1.4813537224863709e-02 -2.2813538525548509e-04 1.1766546135030145e-04
206 -1.4830931284647768e-03 -8.9773411104165186e-04 1.8714017708661155e-03
104 1.4645852508056204e-02 -1.9529628289069857e-04 3.6674424039136364e-03
1 -4.4757090468563543e-03 5.1594487972773896e-03 -6.4610148911193790e-03
183 -5.7365262831812292e-04 2.1995798352977556e-03 -6.6587875280673947e-03
48 4.7146104225343037e-03 9.0976467875125144e-03 5.4702549866829826e-03
80 5.5168741730050213e-04 2.5998061612424726e-03 -2.8715323520675322e-03
192 -5.3413596465485599e-03 2.3448632381124399e-03 -5.5372459489127718e-03
69 -8.7638824833575178e-04 4.7060369524600616e-03 -5.4349179816418841e-03
50 7.4571848008049796e-04 -2.0414339847530886e-03 -4.9148834852166846e-03
168 -6.6482181460721698e-04 2.8122414571114291e-03 7.5208013204481278e-03
119 1.2115357712483269e-02 -2.9554606768028213e-03 -5.8003110944141083e-03
202 7.1979530284247669e-03 1.1728539072200627e-03 -3.7493801956197579e-03
41 -8.6189919778433613e-03 4.6694105255003920e-03 -6.5149105415036749e-03
54 -9.6074237892201450e-05 -7.5217412594455590e-03 -5.6777235357183620e-03
73 -3.3905395022292605e-03 8.3085906238689264e-03 -3.3470343837361388e-03
196 -7.0220973455162976e-03 -7.3776604354221101e-03 4.4942645887944060e-03
5 1.1539029882225153e-02 -4.1404316634823029e-03 3.0225507273171246e-03
187 -1.4010191816842085e-02 5.1145495278713121e-03 8.0723981185234946e-03
56 -1.4271514989621620e-02 6.1101223479122007e-03 9.5462435295823149e-04
22 -2.2088362251076771e-02 8.6401532029801251e-03 -8.5991554882774990e-03
6 -9.9303044233961368e-03 -1.8086226149275082e-04 1.5338577065922468e-03
208 -4.8578023127353017e-03 -1.1287592291536149e-03 -7.8478522043985890e-03
125 -1.1718197736146194e-02 6.0762001031743973e-03 -7.2590935460640094e-03
97 7.4563764765710134e-03 -8.4937926231421039e-03 5.7456399186970432e-03
98 -1.0252603678171433e-02 3.7352317406619206e-03 1.2108651751000756e-02
212 -7.1697453121822921e-03 -5.1191691628280408e-03 9.6221732295397749e-04
140 4.2080592290761193e-03 -1.1437624575099363e-02 -6.7500897321153700e-03
203 4.7025088699026761e-03 -3.2497635498073057e-03 -4.4646285083978108e-03
58 5.8099732485451198e-03 3.0796561252615745e-04 -1.2981686784113719e-02
123 -7.3076493352119314e-04 2.7728409919848047e-04 4.7497797211227344e-03
43 -3.8390758894544992e-03 1.4064175974457793e-03 2.8066606066227181e-03
102 3.8883576135179242e-03 -9.5124115487277318e-03 8.3843080485240754e-03
113 -5.5206721043966189e-03 9.4930260909806751e-04 1.5571748254006573e-03
143 -5.9236408723962689e-03 -3.7034598233488566e-03 -6.5324494879879036e-03
76 4.8695481755824102e-03 -4.4339886487176385e-03 1.8297566765719214e-03
60 -9.8328150112806322e-04 3.0480726916983117e-03 1.2999514052632402e-02
53 1.1013713974472905e-02 -5.9834895840506523e-03 -1.3275657769958264e-02
49 5.4157286339755412e-04 -1.3012497363212817e-02 -3.0084316214782718e-03
134 -2.5232315644347220e-03 2.4458464233891087e-03 4.6313213614416334e-03
216 -4.0149456723560725e-03 5.9280944426527982e-03 5.8313623975083653e-04
82 -2.6580893521623824e-03 4.7977885296510175e-04 -9.3565494954917557e-03
176 -7.7913619966776069e-03 -7.8069395687483723e-04 -5.6158806952613331e-03
156 1.5425656246785175e-02 1.1377075338710239e-02 3.0930746860386364e-03
14 -9.0604822245487753e-03 -2.5736644508637684e-03 2.1257966377969039e-03
127 -9.3392076355326668e-03 -6.0688787825663286e-04 -2.8686431845687229e-03
109 4.2746547041353587e-03 6.7802422609600874e-03 -3.9063279527702640e-03
213 7.0122482878190616e-03 -7.5836328697352856e-04 -7.8660029958118292e-03
65 5.2171304585151707e-03 1.0569745050695018e-02 9.1663350033763542e-03
25 1.3427564074700402e-03 -1.2919662934134594e-02 -8.6444203042538095e-03
103 -6.5611491963310257e-03 5.6086948395039481e-03 6.8748828924627293e-03
118 2.1539251789092673e-03 2.1364797256279338e-03 7.2142616174580435e-03
114 -5.7299068239440734e-03 -1.2615852268990138e-02 -1.0449406244216312e-02
151 -9.3216071184853040e-03 -2.5048259786505213e-03 1.0602753965927255e-03
207 2.7070368833360539e-03 -1.3467457293069556e-03 -5.1291660356277977e-03
205 -2.2440489217468809e-03 -1.2872295576089241e-02 2.3428325391241121e-03
164 -4.8908556012059005e-03 2.1518857309335529e-03 7.2279462273196803e-03
186 1.8622235475258594e-03 1.1585839659228052e-03 2.2021693639010975e-03
70 -7.5308936923048264e-04 1.0636383077800217e-03 2.1896597083675282e-02
59 3.6058171606167802e-03 -7.7080306663146799e-03 8.8869382853806883e-03
45 -7.4712062627461402e-03 -8.2230892799812719e-03 -1.0156100453485857e-03
141 2.2885261870345063e-03 -1.8583726172512957e-03 -5.2764889848973991e-03
200 5.9849162685047192e-03 1.3193050962916590e-02 4.2049614823402616e-03
190 -8.6534938360017851e-03 -4.8578868406591478e-03 -5.1602575694032898e-03
10 -5.6860470973320379e-03 -1.9730821176344232e-03 1.0181165230432141e-03
77 5.8100719212743554e-03 5.0972331791175971e-03 -4.1527433183472908e-03
16 1.0206477826878144e-02 -4.8761364025943604e-04 -7.1144893767217444e-05
195 1.3863567619880861e-04 3.0554837324376079e-03 4.9003250732873984e-04
42 2.9617166094971421e-03 3.9816429185102588e-03 -1.2401355312253236e-04
28 -3.2966794729809208e-03 -1.1634192969315728e-02 2.4575604978192929e-03
177 -8.4727597103289136e-03 4.2348235226197690e-03 -9.4770487515452792e-03
210 -9.4871834110915581e-03 3.6662010373298098e-04 7.1469158852934323e-05
75 4.1016697073610357e-03 9.0240651323151980e-04 -2.8162452414798081e-03
40 1.6032946362456797e-02 -5.1993892110827771e-04 -4.5018277087160546e-04
55 5.5644614636386073e-03 -2.0213031636362433e-03 1.5988034883471043e-04
94 -8.1370667158683595e-03 2.4682432954004781e-03 -1.2722914828251983e-02
46 7.4761525926321883e-04 2.5852339095726483e-03 4.5707381887186349e-03
178 1.5195040866287453e-03 9.3168478035390388e-03 -1.2066546130366340e-03
144 6.8967584461493382e-03 -2.1627673870540055e-03 -6.8698834243055545e-03
209 5.6092791489340214e-03 -2.9565144090578886e-03 3.3723856516862053e-03
7 -6.5677196235926980e-03 1.3698015408957740e-02 -3.5518585562935214e-03
128 -3.1802459905107727e-03 -4.5788711074292773e-03 -2.6620132375402795e-03
34 -4.7817919761563767e-03 -1.0417646971007492e-03 1.0835975137797483e-02
167 -1.4719363480214412e-03 -2.2927205031052617e-03 9.1530600408881307e-03
78 -2.6880924885703427e-04 -1.1438378988763844e-02 -2.8792570552844229e-05
87 4.0368054602371557e-04 2.2337335491587427e-03 1.2434412310773662e-04
175 -5.7789707450817953e-03 2.0946992904013360e-03 -9.1079415215721982e-03
131 -3.2395129112116655e-03 -1.3903700390977127e-04 5.3476468387329062e-03
152 7.6265092602054736e-03 2.9694297220680889e-03 1.4194767100025120e-04
52 9.6868015298965954e-03 4.7394039381308322e-03 -7.5813817445756345e-03
3 1.0398568478911284e-02 -3.8126421293808955e-03 2.0664197443781940e-03
32 1.2703858168118793e-02 5.4683509564602602e-03 -3.5575711253430856e-03
169 1.5175212980326140e-03 -5.6276780432778437e-03 6.9863828046510808e-04
198 -5.1987136706461426e-04 -8.2975183184623470e-03 -1.8798842108306779e-03
99 3.0010720342200947e-03 1.0789244760685875e-03 -5.5778771886238884e-03
88 -6.6084119258206942e-03 7.5195253472185751e-03 -2.8924050576339478e-03
74 9.3258263312177869e-04 -1.7784157905515190e-03 -1.9919813495363069e-03
147 -7.9888438136376614e-03 -1.6920395717179367e-03 -5.4696657697522820e-04
157 1.0570890455718060e-02 -2.2640807761766541e-03 4.7530650941092498e-03
67 9.0027563637095995e-03 -1.2194544722242965e-02 1.4875602255339497e-04
26 -6.0295807506315783e-03 4.9287963669373070e-03 1.4100135313106109e-03
21 -9.9722695640222670e-03 -3.2575040874912396e-03 -5.4368914222808632e-03
199 5.5374299919189966e-03 -2.0963247139479420e-04 -3.1336329451231862e-03
174 -5.4655064627098420e-03 -2.3912529896414837e-03 1.7477851920831881e-03
163 6.8605724381316955e-03 -3.2240880019897811e-03 -2.1006831511000924e-03
81 2.5543776152775027e-04 5.7223014453288892e-03 2.1361184266415188e-03
161 7.2711159517591809e-03 2.5969901086284799e-03 -9.3035912090002892e-03
57 -7.2213956898261322e-03 -2.1647991396350308e-03 -4.4657185657267229e-03
71 -5.7978980413391779e-03 5.4381319356551720e-03 -3.4674049885978974e-03
19 6.2092897944190225e-03 9.4112979617437780e-04 7.2284186048730912e-03
121 -3.5414271546515426e-03 7.4851553334066836e-03 6.4041131879270874e-03
204 5.6018628032374594e-04 -1.1056293372519375e-02 1.1155755761501875e-02
15 -2.6898603272382279e-03 -8.9827413224077505e-03 -7.8251712062949071e-04
12 -3.1574713049365996e-03 -3.5566136825246875e-03 -3.0673037312271391e-03
126 9.0057797811625700e-04 1.6653078765936418e-03 1.1728413201952028e-02
130 -1.5935494704988774e-03 3.0395234346232646e-03 -9.7432789371401027e-03
158 1.0901674355375143e-02 5.0925473979544786e-03 1.1380645115331272e-02
29 3.7295410943632896e-03 -5.6430802756769517e-03 -7.0642626480274581e-03
155 6.3685099283398569e-03 -1.2069323301455782e-03 -8.1791426671014682e-03
100 4.6885170345501966e-03 -2.2904284473890080e-03 -2.6817534190138178e-03
93 4.8744496162729991e-03 9.7221555166844449e-03 -4.8220885020151261e-03
148 -2.2794829678153918e-03 1.5772138254403528e-03 4.3025809466583115e-04
122 3.5340261338106052e-04 -8.2996992215506808e-04 6.3796102943592054e-03
30 1.2506257156407878e-02 4.2945389045509113e-03 2.7263711020412743e-03
191 -8.0286357759872824e-03 2.7734521283345817e-03 6.9634063321517674e-04
116 3.0199391081356425e-03 5.1021586812193421e-03 1.7313094341608092e-03
47 9.9890839136354114e-03 5.2047847336172586e-03 4.5804526129265251e-03
112 7.8091715884905421e-03 8.3188045849907164e-03 -5.1309510328094391e-03
165 -5.3984628113985279e-03 7.3589807419946441e-04 2.2452497208779753e-03
120 -8.4324421512620828e-03 -8.5149167742995645e-03 7.4989615439836196e-03
89 7.6776681426220404e-03 1.3313913288202844e-02 -1.8687343609666463e-03
129 9.2452888284192819e-03 3.0516088257146017e-03 -3.2388474025391322e-03
162 -1.3000916608078598e-03 -5.1982237736812086e-03 3.5592599742383128e-03
106 -5.7549282326323824e-03 -8.0271236253162750e-03 4.2318823174640526e-03
13 5.3566161367479955e-03 -1.0246847388242221e-02 1.9575034231132807e-03
138 -5.5858365200708946e-03 -3.2928711348629316e-04 1.9346850153357403e-04
92 -8.1081661863294657e-03 4.3124859390325622e-03 9.9918128805426640e-03
68 8.9263357338467009e-03 4.9188008745929012e-04 -2.0194762792979581e-03
188 1.3938494066937936e-03 3.1209390772890897e-03 6.1541558753890275e-03
142 4.9283004845345341e-03 -1.0513374388612884e-02 -3.7007136314741165e-03
9 -6.6394586258642263e-04 -6.1688367975579420e-03 1.3466247495376782e-02
150 -1.3089527765469672e-02 2.1538753786718955e-03 -1.8827755209772025e-03
146 -6.7067740901233181e-03 -8.5519589016658454e-04 7.2733790041585428e-04
105 4.9192073363817238e-03 -3.5362683494732329e-03 -4.9488868918630847e-03
18 -9.3671870285844862e-03 -1.3023638710301436e-03 -1.3970898369455479e-02
154 3.7678805271254157e-03 6.6984044455109682e-03 -6.0528223768236962e-04
17 -6.0555155923815258e-03 4.6414052692500029e-03 1.8060563974042273e-03
181 7.7182694815177517e-03 1.5866940319497927e-03 -5.5668660524857234e-03
145 -4.1013447662025570e-03 3.8963311613548820e-03 7.9318181221367835e-03
62 2.7543292459383376e-03 5.8778327819030470e-03 -6.3623377099848071e-03
84 -8.0384402868109092e-03 5.1668471262970358e-03 3.3701380643171835e-03
197 7.6750964105598779e-03 -4.9032676452288705e-03 -2.1009172181869380e-03
64 -1.3247970987249119e-02 -2.6936100215932688e-03 -6.4108882844892583e-04
135 -2.0955041696395561e-03 6.6107727441304161e-03 -7.1808923172036375e-05
8 5.1777554074576310e-03 -1.1118636326625532e-03 4.1430178148213889e-03
96 1.1696973739388938e-02 -2.9943136696834035e-03 -1.5060694095471775e-03
110 -4.0400169547341490e-03 -1.0744107348978888e-02 -7.4074679290053527e-03
153 -3.0117974011566846e-04 6.3900184098485201e-04 1.3413772493785336e-03
108 -6.9826679645684691e-03 -3.4043644363598684e-03 -2.9236098743287337e-03
180 7.5214277592886925e-03 5.2887064952822655e-03 1.4901044858630157e-03
61 6.7990365242898412e-03 8.2663183091797009e-03 -4.1717068083758895e-03
51 -4.2898671404352990e-03 1.2244465893077728e-03 4.6186270081800271e-03
31 8.6047135991664820e-03 4.3942277754561226e-03 -7.0476581156338604e-04
111 1.1559522820247319e-02 -6.9605787489656606e-03 5.8612410753976453e-03
137 -1.5750876976295562e-02 -1.8189559058604828e-05 7.0665348888743727e-03
101 1.0822565377454064e-02 2.7114978563493259e-03 -3.2814005769234850e-03
194 -6.7716611351253207e-03 4.8137902985236703e-03 -5.4378998490147044e-03
124 -1.0471114696123447e-02 -1.5205048638872553e-03 -1.3025075984045032e-02
24 1.0568564004845337e-03 1.2642743086013989e-02 -3.2192134390373424e-03
179 -2.8323800045657022e-03 -7.2138165988009069e-03 2.0191792783985215e-04
11 -1.2046741917090896e-02 5.1081707461698659e-03 -4.7642588595352290e-03
66 -2.5480900910950853e-03 1.0038372682073377e-02 -2.5013823616898221e-03
95 8.6891888494930903e-04 -4.4019350457010593e-03 4.5994032111216542e-03
139 -1.1032252507531660e-02 8.0054608057304015e-03 2.1402264528185808e-04
91 -3.0308012107864830e-03 -9.3377250187724175e-03 7.4486844573263518e-03
214 7.4501992286284575e-03 -1.8920360982321682e-03 -7.6812853744227388e-03
182 -5.3435121938495101e-03 3.4648918750104338e-03 1.0123554339088471e-02
20 -1.3354628973259713e-02 3.8323845191355248e-03 1.9036853114103175e-03
39 1.0047219193175179e-02 -5.3212631539842183e-03 1.4254737168064378e-03
38 -2.4855703447592553e-03 2.7581327561477234e-03 -2.8436500613251551e-03
132 -1.1973675930321889e-02 -4.6459539452940448e-03 2.5508038666307172e-03
159 4.0700020490637961e-03 -3.7827268359725366e-03 -3.6713702163222828e-03
90 -2.8117395308312389e-03 8.6093368503322130e-03 6.4812224047279751e-03
