ITEM: TIMESTEP
1
ITEM: NUMBER OF ATOMS
192
ITEM: BOX BOUNDS pp pp ff
0.0000000000000000e+00 9.8379999999999992e+00
0.0000000000000000e+00 8.5199999999999996e+00
-4.0200000000000003e+01 4.0200000000000003e+01
ITEM: ATOMS id element q 
241 CG -5.61323164234712e-05 
242 CG -5.6919351895654e-05 
243 CG -5.67183668690741e-05 
244 CG -5.72818048548696e-05 
245 CG -5.62029342809078e-05 
246 CG -5.77059376691835e-05 
247 CG -5.70495272711885e-05 
248 CG -5.79269134657751e-05 
249 CG -5.63812633435634e-05 
250 CG -5.75764435019332e-05 
251 CG -5.68410168822198e-05 
252 CG -5.73305190562506e-05 
253 CG -5.62260389002506e-05 
254 CG -5.68682590856712e-05 
255 CG -5.65868327221108e-05 
256 CG -5.67800105090999e-05 
257 CG -5.63781220244836e-05 
258 CG -5.55693810683627e-05 
259 CG -5.61599457216538e-05 
260 CG -5.54422037573332e-05 
261 CG -5.69915797268145e-05 
262 CG -5.56752689234719e-05 
263 CG -5.64972460224689e-05 
264 CG -5.56676795928912e-05 
265 CG -5.69322281316759e-05 
266 CG -5.57489878000722e-05 
267 CG -5.60494919214921e-05 
268 CG -5.55592448962944e-05 
269 CG -5.60442705848235e-05 
270 CG -5.56170427630093e-05 
271 CG -5.57235584369847e-05 
272 CG -5.53984711008371e-05 
273 CG -9.31555370919102e-05 
274 CG -6.43939699572771e-05 
275 CG -6.93605164589634e-05 
276 CG -5.51590268110524e-05 
277 CG -9.15510660255414e-05 
278 CG -3.46436545550499e-05 
279 CG -7.60715874616597e-05 
280 CG -3.24968746827775e-05 
281 CG -0.000105968154366753 
282 CG -1.22423866616012e-05 
283 CG -8.71338432407998e-05 
284 CG -3.56197209707282e-05 
285 CG -0.000104719551605362 
286 CG -3.63495198428682e-05 
287 CG -8.35439731800974e-05 
288 CG -6.31388314385611e-05 
289 CG -7.80375072595152e-05 
290 CG -0.000110656059352982 
291 CG -9.08966148904511e-05 
292 CG -0.00010671545383012 
293 CG -5.58409745630567e-05 
294 CG -0.000114338113582219 
295 CG -5.99320987176022e-05 
296 CG -0.000102006889773992 
297 CG -2.29532623668149e-05 
298 CG -0.000117585530913011 
299 CG -4.25634905868305e-05 
300 CG -9.49803175632064e-05 
301 CG -4.27007241020905e-05 
302 CG -0.000111966658648877 
303 CG -8.45953495207385e-05 
304 CG -0.000103145260376566 
305 CG  0.00184692449103487 
306 CG  0.00137574511987952 
307 CG  0.00107459949036298 
308 CG 3.30518452678757e-05 
309 CG  0.00230588640546266 
310 CG -0.00187075214942722 
311 CG  0.00121168198658048 
312 CG -0.00144099583635907 
313 CG  0.00172502315776647 
314 CG -0.000707116752617018 
315 CG -0.000131019915384223 
316 CG -1.51911647174874e-05 
317 CG 0.000776923795729231 
318 CG  0.00117089622028968 
319 CG  0.00110952996623426 
320 CG   0.0014083295805562 
321 CG  0.00185976240753219 
322 CG  0.00250385122235282 
323 CG  0.00171829549691548 
324 CG  0.00283337671521172 
325 CG -0.000567500862239487 
326 CG  0.00355608245655922 
327 CG  0.00130459511068866 
328 CG  0.00395862609720239 
329 CG 0.000803592420825477 
330 CG  0.00348899690788775 
331 CG  0.00253601342073409 
332 CG  0.00291481014336013 
333 CG  0.00204332435813792 
334 CG  0.00212255331764967 
335 CG  0.00256821961399732 
336 CG  0.00256137559467653 
337 CG -0.00231499544743997 
338 CG -0.00273654572484694 
339 CG -0.00189477411943048 
340 CG -0.00203306860564631 
341 CG -0.00131375904626989 
342 CG -0.000771883348509264 
343 CG -0.000859726146872825 
344 CG -0.000120187283315989 
345 CG -0.00133393131087167 
346 CG 0.000252447015182941 
347 CG  -0.0020419347036898 
348 CG -0.00132176038431746 
349 CG -0.00257544201185236 
350 CG -0.00208781848550156 
351 CG  -0.0029503058202739 
352 CG -0.00313008710905971 
353 CG  -0.0023159679401602 
354 CG  -0.0019082696236539 
355 CG -0.00180348855708405 
356 CG -0.00166410859485179 
357 CG -0.000920443821928546 
358 CG -0.00144764284789453 
359 CG -0.000172805069725973 
360 CG -0.000915901070361935 
361 CG 0.000529225570314817 
362 CG -0.00111405892200866 
363 CG -0.000155105600206401 
364 CG -0.000957996712305204 
365 CG -0.00122953443011704 
366 CG -0.00177763577724128 
367 CG -0.00189039697717357 
368 CG -0.00174176798966481 
369 CG 0.000108525003467141 
370 CG 0.000119335302224452 
371 CG  0.00010684110485483 
372 CG 0.000106233562200478 
373 CG  8.1938301696699e-05 
374 CG  7.3462228429258e-05 
375 CG 7.08914492442841e-05 
376 CG 5.96125303388151e-05 
377 CG 6.49191385302533e-05 
378 CG 4.72578191039186e-05 
379 CG 7.68375874480864e-05 
380 CG 7.09544229868797e-05 
381 CG 9.17599274336406e-05 
382 CG 9.41504024388473e-05 
383 CG 0.000111149711503888 
384 CG 0.000116226580699111 
385 CG  0.00010506076835945 
386 CG 9.72405864380077e-05 
387 CG 7.84078481318728e-05 
388 CG 7.69098480878638e-05 
389 CG 5.61364250400154e-05 
390 CG 6.51935038680218e-05 
391 CG 3.28388056594353e-05 
392 CG 4.52831693858041e-05 
393 CG 3.99326901115438e-05 
394 CG 5.70944695717363e-05 
395 CG 6.06129037064168e-05 
396 CG 6.55838475339815e-05 
397 CG 8.88798344972352e-05 
398 CG 8.84838658310322e-05 
399 CG 0.000103238151814622 
400 CG 9.60182058433318e-05 
401 CG -6.51904326271352e-05 
402 CG -6.49985958515592e-05 
403 CG -6.46747560003602e-05 
404 CG -6.4550753379175e-05 
405 CG -6.40888831651698e-05 
406 CG -6.37643365763163e-05 
407 CG -6.3703754518904e-05 
408 CG -6.33750670242655e-05 
409 CG -6.38374431439215e-05 
410 CG -6.32657349608351e-05 
411 CG -6.4221949707205e-05 
412 CG -6.40220722627899e-05 
413 CG -6.4867019507045e-05 
414 CG -6.45579309873218e-05 
415 CG -6.52601195228336e-05 
416 CG -6.52392164055549e-05 
417 CG -6.48954194497203e-05 
418 CG -6.49764008553433e-05 
419 CG -6.43215388963364e-05 
420 CG -6.44779816341701e-05 
421 CG -6.3691856592496e-05 
422 CG -6.39813336093392e-05 
423 CG -6.32016783248951e-05 
424 CG -6.34837536693383e-05 
425 CG -6.31099731251833e-05 
426 CG -6.36229114012454e-05 
427 CG -6.35683760415034e-05 
428 CG -6.37834503612461e-05 
429 CG -6.42658996731493e-05 
430 CG -6.45153792620812e-05 
431 CG -6.46988406184101e-05 
432 CG -6.47721525260658e-05 
