# Stress tensor of the system
# ----------------
# Pressure:   1 bar = 3.3988273773641905e-09 ua
# step        xx component            yy component            zz component            xy component            xz component            yz component      
       0 -2.224481641385464E-004 -2.266168141774763E-004 -2.356564937787307E-004 -8.294778142554995E-006 -3.015345627230240E-007  2.568118606495344E-006
