# Stress tensor of the system
# ----------------
# Pressure:   1 bar = 3.3988273773641905e-09 ua
# step        xx component            yy component            zz component            xy component            xz component            yz component      
       0  5.960940758343753E-005  4.647469539615006E-005  4.976156595150491E-005  1.352750886591947E-006 -5.470449218711411E-006 -3.001937349168476E-006
