     300
# step        0
O       +4.778690952925492E+000 +1.615869641671859E+000 +1.771984251772037E+000
O       +8.095843510279304E+000 +4.597899586985284E+000 +1.451826971101668E+000
O       +5.544806252616373E+000 +8.392269901079645E+000 +8.798011321810112E-001
O       +9.384386123490785E+000 +1.152449177500324E+001 +1.927095691612216E+000
O       +1.477198241162698E+001 +2.666428257473064E+000 +1.694724588311949E+000
O       +1.224309938357407E+001 +2.826432255063249E+000 +8.755185452010058E-001
O       +2.341411247692691E+000 +9.596422768111034E-001 +2.752082770663164E+000
O       +1.106634178718272E+001 +2.192010003312519E+000 +5.196277216565973E+000
O       +1.954011542196245E+001 +9.026485769210377E-001 +2.131489442082450E+000
O       +3.616978805854157E+000 +1.867662175186146E+001 +3.173608044643647E+000
O       +8.738952635800043E+000 +1.543363088521774E+000 +4.294791048714936E+000
O       +1.693644742893946E+001 +1.906569931999191E+001 +1.312867816551508E+000
O       +9.658732369754098E+000 +7.182730347168256E+000 +1.224367306131408E+000
O       +1.741734251903002E+001 +6.584496297077568E+000 +2.423142360982785E+000
O       +1.491775182523714E+001 +1.063843778830623E+001 +2.136636081842456E+000
O       +1.781585711964048E+001 +1.963840111521257E+001 +4.075152075014683E+000
O       +1.545883357198777E+001 +8.351916277789602E+000 +3.459516922853976E+000
O       +1.886158878772168E+001 +4.155585744024776E+000 +4.054285086664660E+000
O       +1.312448553375508E+001 +7.371975009108467E-001 +4.490802279255162E+000
O       +1.169957306664345E+001 +7.268269053228352E+000 +3.648892587794194E+000
O       +1.233377696677417E+001 +4.316898273844962E+000 +3.286542817503777E+000
O       +6.657250245797651E+000 +6.594874327517577E+000 +2.686402240153087E+000
O       +3.898015946244480E+000 +6.078343110076987E+000 +2.681833713723082E+000
O       +1.973322166978268E+001 +7.800073944178967E+000 +3.717029977994272E+000
O       +6.781192258307795E-001 +1.396740883626605E+001 +5.666203387646511E+000
O       +7.042415484708094E+000 +1.833701792378108E+001 +4.258448525904904E-001
O       +1.194570889241372E+000 +5.621138840636462E+000 +4.327561033574974E+000
O       +7.919460472639102E+000 +2.229060449932562E+000 +1.989771685497287E+001
O       +2.508149086762882E+000 +1.188535911426366E+001 +6.097735142647009E+000
O       +1.455672082445673E+001 +1.495288162719718E+001 +3.839273498894412E+000
O       +1.811424230906082E+001 +1.490809732322713E+001 +4.109323865774723E+000
O       +1.467053327038686E+001 +1.989774860017287E+001 +2.359804133162712E+000
O       +2.568641581872952E+000 +2.829973387013252E+000 +4.862609525945588E+000
O       +7.456541537518567E+000 +1.921283719873207E+001 +5.279485186576068E+000
O       +1.225911609072409E+001 +9.951675989062036E+000 +3.687668186464238E+000
O       +4.835584005165559E+000 +3.585463409484121E+000 +3.418104471753929E+000
O       +6.344029696007290E+000 +1.772833504576037E+001 +3.142406510573612E+000
O       +1.101769488629266E+001 +5.104836715425868E+000 +1.927384825359215E+001
O       +1.100751356963265E+001 +9.439879410420851E+000 +1.180360569521356E+000
O       +1.811021027333082E+001 +1.716790258072973E+001 +5.768021402436630E+000
O       +1.783841106388050E+001 +1.418591517652630E+001 +1.116263738871283E+000
O       +1.943089953127233E+001 +1.899487167542184E+000 +5.454579444696268E+000
O       +5.271873223136058E+000 +1.144242493814315E+001 +5.331226591366129E+000
O       +1.451586791287668E+001 +5.650327931366494E+000 +3.764023808624326E+000
O       +1.063470013666022E+001 +1.220255893607402E+001 +5.921972714216804E+000
O       +7.148898256538218E+000 +1.322375097015520E+001 +6.005313009096902E+000
O       +8.979541428830320E+000 +1.273298665284463E+001 +8.292880844749531E+000
O       +9.822180837591288E+000 +1.801640702843071E+001 +7.635489458208786E-001
O       +1.652688069320899E+001 +1.258416835037446E+001 +2.927184557183364E+000
O       +1.393450895392601E+001 +1.706497501030961E+001 +2.123841367562441E+000
O       +1.170100306834344E+001 +1.545802288321776E+001 +1.409584855501622E+000
O       +1.229321344492413E+001 +1.470354550767690E+001 +5.587647196136423E+000
O       +8.270716470349509E+000 +6.274429924987214E+000 +5.207167617335984E+000
O       +7.520546812338646E+000 +3.844622005744419E+000 +3.898108293174480E+000
O       +1.454045666719671E+001 +1.418468863091630E+001 +7.250345513688333E+000
O       +1.002278872432002E+001 +1.674913105334925E+001 +5.894036147386772E+000
O       +5.680041807866528E+000 +7.527242000008650E-001 +1.915894858275202E+001
O       +1.336568952368536E+001 +1.168269984861343E+001 +7.562186039768693E+000
O       +1.368476573002573E+001 +1.868017332344147E+001 +6.310513903657250E+000
O       +1.548088114535779E+001 +1.646937801303893E+001 +5.952466408506843E+000
O       +1.418336197801630E+000 +8.519771336899794E+000 +1.541025155901771E+000
O       +4.952626472695692E+000 +1.671609761153921E+001 +5.472688219116291E+000
O       +9.771851053159232E+000 +9.814005807765277E+000 +4.864894646375591E+000
O       +1.426581642290640E+001 +1.004334969641534E+001 +5.606472574356445E+000
O       +1.326864823001525E+000 +9.719727095870173E+000 +5.153587463585923E+000
O       +7.710856293818864E+000 +1.560324028524793E+001 +4.567858650355250E+000
O       +3.026782742003470E-001 +1.811820764909082E+001 +2.088348845542400E+000
O       +2.765900935533179E+000 +1.536606512056766E+001 +6.703552914847703E+000
O       +3.092610908343555E+000 +7.315463779248405E+000 +1.981148263072277E+001
O       +7.422688308438532E+000 +9.957517560516044E+000 +5.850828969146725E+000
O       +1.036504922282991E+001 +7.202142709498276E+000 +6.957197472327996E+000
O       +1.655800076649903E+001 +4.593187456285279E+000 +5.175770666985948E+000
O       +1.229206904381413E+001 +9.010145783902354E+000 +7.035017482798086E+000
O       +3.913715975644497E+000 +8.550229541079830E+000 +5.165453161845937E+000
O       +5.589868637326428E+000 +6.550723107597528E+000 +5.673890697536519E+000
O       +2.833650961183257E+000 +1.585286195094822E+001 +3.586492433544122E+000
O       +4.147827074504769E-001 +1.666114016727915E+001 +4.227622004794859E+000
O       +5.493153916776310E+000 +1.899313952696183E+001 +7.467357907208582E+000
O       +1.645220233631891E+001 +2.074672281902385E+000 +3.719274417274275E+000
O       +9.198884317676574E+000 +1.450504333522667E+001 +2.269618280702609E+000
O       +3.468194123543986E+000 +1.986981891723284E+001 +5.694218066946546E+000
O       +1.040327182471295E+001 +1.527930414817756E+001 +8.413000420119667E+000
O       +1.969710382967263E+001 +1.237634080187422E+001 +3.770101873814333E+000
O       +1.035101658522689E+001 +1.931139668080220E+001 +5.467502804966282E+000
O       +1.710182831001946E-002 +1.922370102258209E+001 +6.158949822847080E+000
O       +4.733146841865440E+000 +1.344260346546545E+001 +3.280341712603771E+000
O       +6.479042581267448E+000 +1.434501510943648E+001 +1.310422997931506E+000
O       +9.775757069824232E+000 +1.382673763141589E+000 +1.761529476822024E+000
O       +1.826780509876099E+001 +3.468469955363986E+000 +1.576195484511812E+000
O       +1.513596623254740E+001 +5.333921327606132E+000 +1.143539170551314E+000
O       +1.960878384572254E+000 +1.100814313289265E+001 +2.857767887283285E+000
O       +1.141256367068312E+001 +4.627111300125319E+000 +6.500558986067471E+000
O       +1.988827486142286E+001 +4.158605333044779E+000 +6.968237631148008E+000
O       +1.930120477483218E+001 +2.641950894413037E+000 +9.302322385236689E+000
O       +1.850680274871127E+001 +4.349393752705006E-001 +8.115891825859324E+000
O       +1.341558999398542E+001 +6.972580464878013E+000 +1.985210793441282E+001
O       +1.626348156286869E+001 +1.934734075775224E+001 +7.172554369998242E+000
O       +1.809081798988079E+001 +1.492524725906715E+001 +7.590860238718725E+000
O       +9.868055690475341E+000 +1.605911273601840E-001 +1.879972348216160E+001
O       +1.652272096111899E+001 +1.632012394594876E+001 +1.960665680776253E+001
H1      +4.051614010464657E+000 +9.880367939911362E-001 +2.049806200362356E+000
H1      +8.712511993180014E+000 +5.301305560696094E+000 +1.098358417541262E+000
H1      +5.844280323536716E+000 +9.346355379878741E+000 +8.737861523510049E-001
H1      +9.129753034009493E+000 +1.247253927651434E+001 +1.736391930201996E+000
H1      +1.478595156753699E+001 +3.653070681594198E+000 +1.532423665331762E+000
H1      +1.167784353170342E+001 +2.011921061532312E+000 +1.006122287641157E+000
H1      +2.347661562862699E+000 +1.638240467871884E+000 +3.486565873714008E+000
H1      +1.128385161985297E+001 +3.137425393373606E+000 +5.438927608976251E+000
H1      +1.875009903308154E+001 +5.919710562606806E-001 +2.660028545123058E+000
H1      +3.846429800054421E+000 +1.870500806725150E+001 +4.146514236604766E+000
H1      +8.061928600049265E+000 +2.278556069652619E+000 +4.261179510274897E+000
H1      +1.770956495122035E+001 +1.887518917330169E+001 +1.917843172052205E+000
H1      +1.014338359265766E+001 +6.590876700657573E+000 +5.803001875406677E-001
H1      +1.656168254076904E+001 +6.358635961787308E+000 +1.957488937772250E+000
H1      +1.396872825169606E+001 +1.081968376310644E+001 +1.878752089532159E+000
H1      +1.771666459479036E+001 +1.869894067860149E+001 +4.403138250125060E+000
H1      +1.622585246510865E+001 +8.054776107379258E+000 +2.890843258343323E+000
H1      +1.895825672354179E+001 +3.218609324503699E+000 +4.390038715755046E+000
H1      +1.342967393003544E+001 +1.170063842601342E-001 +5.213452278645992E+000
H1      +1.113435196647280E+001 +6.802483279327819E+000 +2.968033776613411E+000
H1      +1.233902402831418E+001 +4.085523833954696E+000 +2.313692193352659E+000
H1      +7.088569901118150E+000 +5.928189831446812E+000 +2.078541123102389E+000
H1      +4.741267715015449E+000 +6.345104475197295E+000 +3.148486506013619E+000
H1      +3.794447029504355E-001 +7.941015783619126E+000 +2.967009185443411E+000
H1      +1.987927403888285E+001 +1.444518871425660E+001 +6.031679454486934E+000
H1      +6.870136333787896E+000 +1.808836311634079E+001 +1.378992627541585E+000
H1      +6.163144147207077E-001 +6.408758212047368E+000 +4.114781392964730E+000
H1      +7.103919548058164E+000 +1.755038271572016E+000 +1.956575906435249E+001
H1      +2.086785541212398E+000 +1.269418591992459E+001 +5.687549866296536E+000
H1      +1.507104270712732E+001 +1.409780707817620E+001 +3.905004135814488E+000
H1      +1.900786540771184E+001 +1.524417574378752E+001 +3.811852770024381E+000
H1      +1.543958707030774E+001 +1.938749215090228E+001 +1.974843604272269E+000
H1      +2.030751472552335E+000 +3.670867396814220E+000 +4.802847543365520E+000
H1      +6.795550177847812E+000 +1.920671099199208E+001 +6.029853690736928E+000
H1      +1.256841455869444E+001 +9.001242373215346E+000 +3.655881403264202E+000
H1      +4.723105265325428E+000 +2.830063163553253E+000 +2.772566710243186E+000
H1      +6.879336968257909E+000 +1.811723944030083E+001 +3.892206147934473E+000
H1      +1.079535133433840E+001 +4.559631608875240E+000 +1.846556938049122E+001
H1      +1.036978706475892E+001 +1.020985870681773E+001 +1.201260045791382E+000
H1      +1.715991679379972E+001 +1.702368812310957E+001 +5.492078486306312E+000
H1      +1.755039364620017E+001 +1.480619639850701E+001 +3.866767510704456E-001
H1      +1.981200483478277E+001 +2.618828830893010E+000 +6.035360228646939E+000
H1      +4.350435080895000E+000 +1.155315691066328E+001 +5.703637896636558E+000
H1      +1.372556407556578E+001 +5.048972275425802E+000 +3.646587784364191E+000
H1      +1.017080970255769E+001 +1.233465486740417E+001 +6.797961487017814E+000
H1      +7.345157113808442E+000 +1.406234714629616E+001 +5.497140878516316E+000
H1      +9.532879023701955E+000 +1.354731903439557E+001 +8.468038711999730E+000
H1      +1.051099728874608E+001 +1.737351716626997E+001 +1.098548232011262E+000
H1      +1.674642366006925E+001 +1.313146538018509E+001 +2.119554167172436E+000
H1      +1.424095270518637E+001 +1.643519224430889E+001 +2.837610164133262E+000
H1      +1.233445136895418E+001 +1.611850554165853E+001 +1.812705071252084E+000
H1      +1.168599735743343E+001 +1.541449551131772E+001 +5.942384726436832E+000
H1      +9.088856076488447E+000 +6.372952513107323E+000 +5.773684064146636E+000
H1      +7.875345394879052E+000 +3.936652352094526E+000 +2.967706024703411E+000
H1      +1.377475557678583E+001 +1.466633110504686E+001 +6.824056448327842E+000
H1      +1.007448134476968E+001 +1.770134466735034E+001 +5.593009393906428E+000
H1      +4.937112794985674E+000 +5.523513573906357E-001 +1.852027244748129E+001
H1      +1.265675393371454E+001 +1.210665646495392E+001 +6.998562835188041E+000
H1      +1.292478920183485E+001 +1.808031272741078E+001 +6.560719702817538E+000
H1      +1.563313845783797E+001 +1.585983075292823E+001 +6.730457313647737E+000
H1      +1.709827549091966E+000 +9.463888199162879E+000 +1.694895694071949E+000
H1      +4.091105496524702E+000 +1.628162731437871E+001 +5.735399407516590E+000
H1      +1.001609228917861E+001 +8.855873304340179E+000 +4.715467993755420E+000
H1      +1.512414248204738E+001 +9.555506088653983E+000 +5.447460025916263E+000
H1      +2.181860486742508E+000 +9.201609884151575E+000 +5.176760074845950E+000
H1      +8.305783815019543E+000 +1.523066584458751E+001 +3.855644124604432E+000
H1      +6.006698414007053E-002 +1.902140605191186E+001 +1.734269183501994E+000
H1      +2.162385714862485E+000 +1.467767341214687E+001 +6.301202030417239E+000
H1      +4.020839377334621E+000 +7.686805224978833E+000 +1.983378599471280E+001
H1      +6.717103519037718E+000 +1.058232690829716E+001 +5.516518658356338E+000
H1      +1.098427879448962E+001 +7.982798840479172E+000 +6.872753747037899E+000
H1      +1.677128585783927E+001 +4.430677790815092E+000 +6.139150176027054E+000
H1      +1.296146324529490E+001 +9.234446574103616E+000 +6.326779840087273E+000
H1      +4.390195533855045E+000 +9.428766997166838E+000 +5.199204737445975E+000
H1      +6.453307098567414E+000 +6.651152661217644E+000 +5.179534623025954E+000
H1      +1.950778496392243E+000 +1.593498035686831E+001 +4.048869745194654E+000
H1      +1.961723773738255E+001 +1.678296828413929E+001 +4.818451870855537E+000
H1      +5.393514388226198E+000 +1.818837492904090E+001 +6.882186217627907E+000
H1      +1.679391185764930E+001 +2.738258792933147E+000 +4.384772385285039E+000
H1      +8.475550748559739E+000 +1.445077920861661E+001 +1.581255039121818E+000
H1      +3.059801748383517E+000 +7.516113312108648E-001 +5.930137134656815E+000
H1      +1.135010984407304E+001 +1.536857065766766E+001 +8.722078493410022E+000
H1      +2.619903678403006E-001 +1.184074518555361E+001 +3.142375392973611E+000
H1      +9.422001045780828E+000 +1.968122994691262E+001 +5.455113989696271E+000
H1      +1.931825246167220E+001 +1.853107641986130E+001 +5.980398086826876E+000
H1      +4.136837636684755E+000 +1.421134137251633E+001 +3.511550194444036E+000
H1      +5.881590428426761E+000 +1.498335115197722E+001 +8.250591943109490E-001
H1      +9.114584242373475E+000 +1.771479109912037E+000 +1.119905837481286E+000
H1      +1.842145261700117E+001 +3.686366578374237E+000 +2.539997072922919E+000
H1      +1.462823470476681E+001 +5.941452705956831E+000 +5.327083265106123E-001
H1      +2.740303980953150E+000 +1.163220224341337E+001 +2.912958160703348E+000
H1      +1.199420191233379E+001 +4.458199982415124E+000 +7.296276223908388E+000
H1      +1.977761410270273E+001 +3.851544486854427E+000 +7.913471905399096E+000
H1      +1.891208362143174E+001 +1.768676695072034E+000 +9.009104205818353E+000
H1      +1.919605312732207E+001 +1.582345129601823E-001 +7.446288708508557E+000
H1      +1.340293143707540E+001 +7.972106847319162E+000 +1.988015738615285E+001
H1      +1.529407202464758E+001 +1.956187188434248E+001 +7.053300259218108E+000
H1      +1.760997393679024E+001 +1.509253921779735E+001 +8.451559022939712E+000
H1      +1.050918291179208E+001 +1.968365482785262E+001 +1.819848505002091E+001
H1      +1.554096794758786E+001 +1.615840391597857E+001 +1.970669506214265E+001
H2      +5.148506849135917E+000 +1.327636975391526E+000 +8.887186444910214E-001
H2      +7.877832094599055E+000 +3.948900448194538E+000 +7.229434821408309E-001
H2      +5.873692878156754E+000 +7.944926721589129E+000 +1.711496790041967E+000
H2      +9.168651975158539E+000 +1.130642659202299E+001 +2.878886820603308E+000
H2      +1.535105050153764E+001 +2.449689910842816E+000 +2.480666466792851E+000
H2      +1.316827728191514E+001 +2.647241349633043E+000 +1.210087634981391E+000
H2      +1.396673056601605E+000 +7.495092419108619E-001 +2.500460319462873E+000
H2      +1.189203357671367E+001 +1.734021447151994E+000 +4.866914876395594E+000
H2      +1.939268516664228E+001 +1.846289271402122E+000 +1.835167725802109E+000
H2      +2.811225729253231E+000 +1.924421158412212E+001 +3.004481577553453E+000
H2      +9.618170661854057E+000 +1.913369249652199E+000 +4.594909530975281E+000
H2      +1.713901654639970E+001 +1.987184483134284E+001 +7.569045379308701E-001
H2      +1.013015819240864E+001 +8.062312306549266E+000 +1.288345978181482E+000
H2      +1.815536099440087E+001 +6.017016582446915E+000 +2.058045793622366E+000
H2      +1.497227317151721E+001 +9.759767131064219E+000 +2.610941151293000E+000
H2      +1.862369978411141E+001 +5.385677903006175E-002 +4.493227212805164E+000
H2      +1.496993741168720E+001 +7.550820690878675E+000 +3.804808690894372E+000
H2      +1.965677274279259E+001 +4.693587544185394E+000 +4.333993042654981E+000
H2      +1.362326514708566E+001 +5.373681309506168E-001 +3.647423882434192E+000
H2      +1.203610925598383E+001 +6.602308903707587E+000 +4.314655663154960E+000
H2      +1.183010464776359E+001 +3.616963476804157E+000 +3.792907779714359E+000
H2      +7.311716142448404E+000 +6.879622359567906E+000 +3.386825646643893E+000
H2      +3.949827292664540E+000 +6.347441778227293E+000 +1.720115724301976E+000
H2      +1.884900567191166E+001 +7.516065120608641E+000 +3.346218628043846E+000
H2      +3.809013005404372E-001 +1.327872890604526E+001 +5.004855174825752E+000
H2      +8.025839496619223E+000 +1.830926914445105E+001 +2.466599814902832E-001
H2      +2.145451831432466E+000 +5.835818096656709E+000 +4.104540292784717E+000
H2      +8.729352807300035E+000 +1.855578190582133E+000 +1.944540566981235E+001
H2      +1.873897315092153E+000 +1.111428643383277E+001 +6.041418079296945E+000
H2      +1.365248891980569E+001 +1.483024237861704E+001 +4.248326401724882E+000
H2      +1.766787921673031E+001 +1.443234965583659E+001 +3.351416122853851E+000
H2      +1.451141905612668E+001 +7.215948700208310E-001 +1.815782083582087E+000
H2      +3.491210747634012E+000 +2.999081832693447E+000 +4.515812080755190E+000
H2      +7.802288195248966E+000 +1.418269311501625E-001 +5.147434720095916E+000
H2      +1.143867155474315E+001 +1.001637742978891E+001 +4.255721429514892E+000
H2      +4.480765583765150E+000 +4.427227065175089E+000 +3.011241060033461E+000
H2      +5.409960449366215E+000 +1.808338078729078E+001 +3.180579326853656E+000
H2      +1.140841442484311E+001 +4.512387969495186E+000 +1.997836420489296E+001
H2      +1.156704077620329E+001 +9.447920095487861E+000 +2.009133549592309E+000
H2      +1.844081489106119E+001 +1.636172736432880E+001 +6.258716936547191E+000
H2      +1.878050660222158E+001 +1.389331027420597E+001 +9.524395411210957E-001
H2      +5.670004500007652E-003 +1.083358336411246E+000 +5.514350960276340E+000
H2      +5.847360750306722E+000 +1.220202211495402E+001 +5.634255030716475E+000
H2      +1.522716576095750E+001 +5.169656211075941E+000 +4.276868881354916E+000
H2      +1.027147846763281E+001 +1.138662860898309E+001 +5.472164176636288E+000
H2      +7.798194314548965E+000 +1.313181847102509E+001 +6.760271977957767E+000
H2      +8.255546224049487E+000 +1.266792041200456E+001 +8.979610287650319E+000
H2      +9.772880154462230E+000 +1.880286341291161E+001 +1.379224020801585E+000
H2      +1.575628381091811E+001 +1.198091043348377E+001 +2.721611381123128E+000
H2      +1.422936755977635E+001 +1.799348176759068E+001 +2.349526112812700E+000
H2      +1.202194696180382E+001 +1.453003336300670E+001 +1.598874230891838E+000
H2      +1.176000771788351E+001 +1.388398068377596E+001 +5.377873146066178E+000
H2      +8.060345493299261E+000 +5.303681809146098E+000 +5.091443170415851E+000
H2      +6.521429337087493E+000 +3.811647007554381E+000 +3.872090604094450E+000
H2      +1.423790915056636E+001 +1.328170302529527E+001 +7.555438935798682E+000
H2      +9.315164333906706E+000 +1.627257969883870E+001 +5.372340327376175E+000
H2      +6.049800950206952E+000 +1.989635696790287E+001 +1.951938351503243E+001
H2      +1.385597274503593E+001 +1.099853196479664E+001 +7.022244682188070E+000
H2      +1.448755331423665E+001 +1.812647339767083E+001 +6.089270854416997E+000
H2      +1.528779354261757E+001 +1.592557885421830E+001 +5.135765941675903E+000
H2      +2.009312206932309E+000 +8.096154306879306E+000 +8.545151643409835E-001
H2      +5.535123413676363E+000 +1.604814826762845E+001 +5.009502524475758E+000
H2      +8.891919261420217E+000 +9.863891863607337E+000 +5.337368374026137E+000
H2      +1.383034909371589E+001 +1.024628256873077E+001 +4.729439818665436E+000
H2      +5.762141149306622E-001 +9.112659456450473E+000 +4.892833948485624E+000
H2      +7.148272161778215E+000 +1.633500041477878E+001 +4.183116909444808E+000
H2      +1.204956994711387E+000 +1.785704705890052E+001 +1.745291624902006E+000
H2      +2.567332066382952E+000 +1.545380144601776E+001 +7.679704922168828E+000
H2      +2.939753027963379E+000 +6.852401077737875E+000 +1.893843772760177E+001
H2      +7.038135262998088E+000 +9.039010559924389E+000 +5.942828127356829E+000
H2      +9.556137258370983E+000 +7.473251197178588E+000 +7.478888589438596E+000
H2      +1.740802154176000E+001 +4.685225572185385E+000 +4.657124673225353E+000
H2      +1.247484783837434E+001 +9.557471126668988E+000 +7.851734619529025E+000
H2      +4.575694914375259E+000 +7.807842301308973E+000 +5.268628114736055E+000
H2      +5.673604727496522E+000 +5.813813664786680E+000 +6.344675864567295E+000
H2      +3.302479518403796E+000 +1.673597815167924E+001 +3.603972706624142E+000
H2      +3.189195247003666E-001 +1.723658482070981E+001 +3.415419012303926E+000
H2      +5.161942614645932E+000 +1.877996893461158E+001 +8.386519140019638E+000
H2      +1.665935501243915E+001 +1.148802996941322E+000 +4.035270993104638E+000
H2      +1.004709016526695E+001 +1.481246830378702E+001 +1.838298528282112E+000
H2      +4.116411452744732E+000 +1.960139288849253E+001 +6.406792106057363E+000
H2      +1.021039734474273E+001 +1.597767816352836E+001 +7.723744901708877E+000
H2      +1.874894063829155E+001 +1.237104244206422E+001 +3.452362216423968E+000
H2      +1.100852763836265E+001 +6.337545660007148E-002 +5.514482968076337E+000
H2      +9.188844153310569E-001 +1.879170538775160E+001 +6.171908883087096E+000
H2      +4.749459015505459E+000 +1.279304916866471E+001 +4.040481915794643E+000
H2      +5.929883942276816E+000 +1.376995965076582E+001 +1.916835406022204E+000
H2      +9.380953732556781E+000 +1.370070565711574E+000 +2.680208683233080E+000
H2      +1.729365450967988E+001 +3.552750566934084E+000 +1.366606819951572E+000
H2      +1.481782729169703E+001 +5.463636434256278E+000 +2.082667279712394E+000
H2      +1.869669241712148E+000 +1.051161394464008E+001 +3.720982609974277E+000
H2      +1.084703029297147E+001 +5.434960800866248E+000 +6.666544475937659E+000
H2      +4.065587745804685E-001 +5.013696544415763E+000 +6.954067043037991E+000
H2      +1.915951725961202E+001 +2.756623866123168E+000 +1.028556943333482E+001
H2      +1.759425756121022E+001 +2.539983458902929E-001 +7.749119928548908E+000
H2      +1.257829652356446E+001 +6.640698717917630E+000 +1.941760344603232E+001
H2      +1.636251860299881E+001 +1.838789901736113E+001 +7.436492263228549E+000
H2      +1.779760217299046E+001 +1.404822693170615E+001 +7.210255679978289E+000
H2      +9.606551822402041E+000 +1.955771421119248E+001 +1.955348415433248E+001
H2      +1.675362186209925E+001 +1.721529083662979E+001 +1.998791920001297E+001
