ITEM: TIMESTEP
0
ITEM: NUMBER OF ATOMS
216
ITEM: BOX BOUNDS pp pp pp
-3.6981923812518023e+00 1.7798693381161936e+01
-3.6981923812518023e+00 1.7798693381161936e+01
-3.6981923812518023e+00 1.7798693381161936e+01
ITEM: ATOMS id element x y z fx fy fz 
1 Na    -2.41805025193375     5.96059367090356    -2.22068501131683    -15.7560031845675    -10.3694461292014     12.7157426243268 
2 Na     11.2637927502118     2.54073859261666     2.22761949849556     1.23392499122467    0.103423264102015   -0.965739032548535 
3 Na     8.47157078796684     1.93506024481943     10.2160378031119     0.94966340533364     2.25485721828369    0.624046111178248 
4 Na       10.19405560746     2.02462664750042     5.90258307495144    -13.3381034170069     3.40493162677244     14.1567653406975 
5 Na     5.70294986190571     1.86342670918965     5.40978422878923   -0.121006073233658     5.36040923738639    -0.21368128310437 
6 Na      7.5407138314445     10.5105467444638      5.7141930763024    -3.18863953889934     3.68523068004883    -6.07252596573432 
7 Na     13.7341988474068     2.88092728683299     6.33549504154392     11.1720542460563    -24.1298249499277    -14.0873143263065 
8 Na     16.3217713394468     8.33782383740997     17.3523095590006    -6.76263359160108    -16.0801204502851     6.19928469623372 
9 Na   -0.957706381674559    -1.49008859883608     16.2847610837917    -3.15689100972613    -4.50086583697153     -2.3212784097765 
10 Na     3.10263442778402       9.526249447233     4.22131560963077    -0.84487391378449     11.9910237562038    0.610899091083899 
11 Na     2.46542376434662     14.7922320108104     17.5513449515655    -6.47305521792423    -1.36949583377293     -6.2312764569517 
12 Na     17.6722878672835     1.77416040810619     13.3227157493917    -13.6251119647525     15.6698525646032    -7.57441284010977 
13 Na     1.61940593777434     3.88456264975151     9.98063430258774      25.588787730487    -8.76601459662935    -37.3946999914079 
14 Na      17.213284344886     11.1137125222377     13.1379084724274     20.6286191366983     10.5251722974242     40.8434542343396 
15 Na     1.84826819354609     13.2237681080707     9.42505064267577      5.6899079339404    -2.99917667432028    -4.21699641693979 
16 Na     6.57737774841266     16.5897932310218     11.0992461116057    -2.88344523269035     82.0888916517028     -16.024760355585 
17 Na     6.86354324071426     6.93593998214473     15.8738052489838    -34.7321850462598     6.41785804098224    -18.6332210980296 
18 Na     12.0857230580655     3.20430711789134     13.5063593817126    -1.12649184136339    -15.2375265724978    -6.54483579791802 
19 Na   0.0458415812972297     15.1743103378809     6.55556173630541      1.6588731232772    -6.62598785233204    -5.82850893163205 
20 Na     5.41611180803822     2.47121818736438     13.7650406860928     27.1496488681524    -33.3386409717507     25.8469973555863 
21 Na     4.05584147490856     7.91534213415792     7.89346472719172    -1.86308408470424    -10.2548818239567    -18.3365909349719 
22 Na     16.2989123657363      13.123166979267     8.62421977764732    -2.55691128332889     -5.3485403447629    -7.52606899223909 
23 Na    -2.34256745254581     0.44014382237251    -1.96355789924604    -4.17986350881872     15.8551005359865    -4.50497686555138 
24 Na     15.1062331616361     16.8584490777615     12.5611909777303    -7.22640997411271     2.13819192209883     12.7840937476531 
25 Na   -0.344829761515919      10.926310331668      5.2742901157092    -15.7078774854403    -5.15626391813057       15.30677197715 
26 Na     16.2845737366057     15.3524640419662     2.51473352256906    -12.1562705759892    -22.9861306505959    -7.84781264354786 
27 Na      16.125547040169     3.02302556139589      1.9513917158608     4.95081092703891    -15.4616618183349    0.793634751720474 
28 Na     6.45709510021972     11.6506280073378      9.7069527466543   -0.390832677401827       6.222562290831     11.6504981667024 
29 Na     13.7659942893133     14.0206845522851     15.2926456878087     18.5099341156251     -25.689469666273    -37.8559545589915 
30 Na      13.299722939369   -0.185822683714994     10.8070032868669     1.53371287200446     -2.0655025450494     4.94083123799335 
31 Na     -1.5241444001392     7.55277883141819     13.7199828594114    0.206845231653494    -15.1611079739999    -9.18816492010988 
32 Na     1.76330890473286     3.57826945798746     14.0747962579314    -7.80738782203502     24.1896731853574     7.46926005989282 
33 Na    -2.03461156163606     16.5951291117713     3.66248360205105    -18.7841380770854     5.04753066994426     26.4608275666108 
34 Na      3.2088485846581     -2.0834671741054  -0.0379320485270366     8.43839180320196      12.063752223048   0.0384138055297293 
35 Na      9.5575671237279    -1.43177098258089     1.81923414707854    -3.67979527580706    -3.96049714112251     15.0156697571425 
36 Na     2.31485340499314     1.04865498196588    -3.23167060600128    -16.7855545840311   -0.499225336338225     38.4427939614261 
37 Na  -0.0475560066811038     9.21442921170823    0.446095796556009    -6.45530559011599    -14.9441201587613    -5.73556435312272 
38 Na     3.97890637956247    -1.53078257963311      16.829987117561    -5.27329295408749     -5.2811863383366    -18.6947102423762 
39 Na     5.54886189460724     12.7160697079676     14.8080918246829    -2.73166249499494     13.9773044529046     2.08310659502652 
40 Na    0.150554233723145    -3.20798597483123     9.12269093589401      4.7409565901076     25.8784137103737    -3.57402232043927 
41 Na     7.91264763107547      11.039853784889    -3.13177402988693    -10.7402229611494     21.2523117169034     2.00046516838193 
42 Na     12.5894047743604     11.3124845454998     10.4603222217694    -7.52833756865205     37.3054812838037     11.6466994558375 
43 Na     14.1015815364671     6.24456532028415     3.94255386441299     4.13927550210457     -33.821020178667     17.9909629354221 
44 Na      7.2626152149035     12.2784788330605      2.0464120267262     12.5826454846829    -5.60373630104096    -52.3128359897376 
45 Na   -0.438937191482383    0.489186709365043     7.31150285060831      5.9393457205159    -22.4463961230345     0.69398141314784 
46 Na    -1.33963969780158     9.64265037027107     9.56838622401776    -9.87382215473322    -2.10656710114033     6.79375867089419 
47 Na     7.78787466959273      14.978698611409     6.67449379913214    -6.95294898539738     -10.333730947999   -0.958235946712392 
48 Na    -2.28194067695831      11.612902375504     1.19035083049836     19.1442955103957     9.15350449710838      3.8474195338667 
49 Na     15.9668998941171       8.564590698703    0.526168529524632    -3.39473468867959     -1.6354047984015    -2.29757578745457 
50 Na     14.9156861640771     1.98490720491416    -2.76625082913005     2.64991604642923    -11.1751282172165     1.37886915942542 
51 Na     11.0940703488234    -3.22996670523937     13.9078356372441    -16.1762188240154     6.46221101097048    -5.16393116281445 
52 Na     12.9385833364904     6.57288558981727     15.1840211627961    -12.3584504694879     1.30318326476494   -0.939565792981279 
53 Na     7.81859826859112  -0.0299116025012802    -0.99258705836151    -23.1596581088511    -11.8491385104449     2.79005353367052 
54 Na     12.7409129647105    -3.49496487643701    -3.15410219161101    -12.5103745315201     11.9931726569127    -7.16123805291371 
55 Na     15.5299320404679      8.6528448877539     11.4340058415187     7.11518589086266    -16.0317411337486     5.27194110488736 
56 Na     10.4738518291921     6.11594255966151     3.16558101027923    -6.20817215888014     18.7113178608243   -0.124421954953806 
57 Na    -2.00785980482293     14.4940522489069     11.4568996815879     10.7097465683348    -2.18707204789692     4.46029275515794 
58 Na     15.1564495575518     -1.9107047330154   -0.564091953499812     17.8612357470406     16.1510916676649    -4.55979356196184 
59 Na     12.5017722184947     7.49666309646891     7.30538504317946     2.90754133217061    -7.45048085446667     8.06711515599045 
60 Na     3.12871136473337       14.18016486471     3.68507650631453    -4.67836051323525    -13.2828254948792     1.66923133494255 
61 Na     5.84829857986392     5.11893122379816     10.4832935642523     18.6317031246965    -6.88215900450629    -5.80766010511398 
62 Na     9.30415640462049     3.70372838059313     15.4023693788632    -16.2304996636255    -22.2322673132382    -1.97033053224642 
63 Na     10.9950990547207     1.68629112629438    -2.65088130586867     3.70206999590135    -15.7971123755033    -24.2086088487333 
64 Na     14.5763020900606     4.78527969173084     10.3900057137588    -20.5907089550732    -2.09094691447291     6.62033636134242 
65 Na     13.5201282812565     5.42215868112453    -1.21180063779771      8.5727018001044     24.3293956751198    -6.40254449614939 
66 Na     6.06341625680489     17.1262391044946     16.0331689488395     6.83071832519757    -0.55857087819132    -12.8473540672468 
67 Na   -0.365927480847182     6.05707809871444     7.57218522129398     6.43632054605633     11.5208294253021    -15.6627133541474 
68 Na    -2.35042571472362     3.70773267076904     16.3839669821534     2.84735835923666    -16.2138610706986    -54.4817709289194 
69 Na     7.05919110092531    -2.87755982555343     4.01630288007645    -7.97392735718053    -1.02833870878821     2.81333776812573 
70 Na     9.70174499987703     5.91751298205189     11.3527270328244     9.24099735970232      31.534145064052    -10.6674473364845 
71 Na     1.11588373381841     17.0272506147855     14.3093042025339     64.0435703602744    -1.99309371738304      10.872121184451 
72 Na     6.43417396251355     16.5564467570526    -1.10499660294684     10.3033435272689    -8.08247689605584     1.31540474746034 
73 Na    -1.10317649078348     11.4524376502141    -3.21587615479809     4.34404030520152     13.4755039654641    0.264639109653525 
74 Na     4.73577396325145      3.6505056719186     1.41267614070134    -4.37556754827121   -0.290550860575139    -2.93429025500925 
75 Na     16.5809173589329     11.3036019543665     5.58547296156813      3.9749432406768    -2.48122369072921     -8.6912469444228 
76 Na     12.9765453540036     10.7224958120161     17.4850191454388    -13.6965827422017    -12.6264491460184     10.0242291800073 
77 Na     10.7692258446568     14.9199593176755     9.67860917508125    -5.99609062128427     3.44029972960158    -14.3601907592037 
78 Na    -3.57122274185939    -2.40227658359218     11.4254501434564     4.87236230357767     25.6966533413399    -0.42779091801118 
79 Na    -1.85390751369501    -1.95576376885479    0.803671682337549    -47.2237541307547     2.49657209737521    -18.8737299754632 
80 Na     0.47057445784932      15.617850852657     0.54004527948968     36.4678562371975    -24.0350909696775    -8.00158865383234 
81 Na     16.1414528756101      12.684096221329     17.6125005357732     15.2702479045577      -14.09464726916    -15.3659560162347 
82 Na     5.92747329438295     1.97082863973915    -3.55574053980364      12.571411871414     13.9847795554023    -3.87726725199749 
83 Na     4.20279665150795      12.458629491841    -1.86757961526113     1.21058170212831    0.998746112072439     10.5234665007904 
84 Na     0.50299853213154     12.6803825943404     14.5071476317123     1.51250247036603     2.12006340729373    -4.29696675079238 
85 Na    -2.72489856715621     16.6494839630271    -1.81946171831426     15.5869517644724     12.4530796226805     9.83283474060727 
86 Na     9.45811351052939     8.10145052846988    -3.61735552902749     16.4650640251913     -2.1006974848394    -3.23701652443158 
87 Na     11.0611897551684     -2.7488695402726     7.66328827871481    0.134637040801592    -4.75878616011941    -13.1992243844067 
88 Na     17.6471245720874     7.03499430666865     4.69583434928371     12.0082967668941     32.0795085496451     3.54192936703013 
89 Na     13.0243113082793    -1.97523263814071      3.5071903472351     18.1288887224057    -12.2047678953091      8.7274075941773 
90 Na     8.07027720960973     5.95908906906296     6.23179416730668     -20.199799641941    -2.73003569691495      3.3946994724802 
91 Na     14.8291784473224    0.272129602040262     15.2346298241079    -10.2208393772065    -14.8811087869561    -8.49658030510942 
92 Na     10.8094182326191      14.117716841647     17.3435066891991     15.3008548783773     -12.552327573221    -40.6932263936726 
93 Na     11.5155937789425      11.805061269967     5.19190034386693     21.0039777637531     8.94375094270685     7.40222830429548 
94 Na      5.6007595349248    -1.09869526838781     9.35253040253874    -1.73720785523545     4.24188103304182     6.53874771915428 
95 Na     7.67411201430443    -0.87559181311056     13.5947352803569    -18.8835953489115    -27.6435141766038    -13.8492676301112 
96 Na     1.73336761741021     7.72065680122209     17.5478916792107    -3.65011930495362    -6.44137931053976    -9.74220265029443 
97 Na     12.2250452564393      15.089551568884   -0.714223959464308    -10.1688304843615     10.8776351671384     10.3915389403807 
98 Na     14.4852723567752     12.0498604989318   -0.631602433799167    -1.48975667885858    -9.21208434572209    -4.35857661958455 
99 Na    -1.66110501008436     4.38925069092685     10.5824333905857    -16.8853919279473    -2.00347173469696     25.9867081171634 
100 Na    -3.05731999852771     2.34100430800772     8.20002551045518    -53.1436020217322    -43.8478960932531    0.279428634594716 
101 Na    -2.35180906733607     15.4632070617491     16.1062846010844    -13.7694577388809    -11.5214897270214    -13.2701510749844 
102 Na     17.7292860128534     17.1902342104182     7.35910536688856    -4.28939373509162     10.7250646552589    0.391492205369719 
103 Na     4.89154126886304     7.85272819819651    -1.31065904607771     11.0654886643572     15.7094398131606    -1.15375586131961 
104 Na     1.81971426165077     -3.4491282168183     3.57706414930825      5.8993323772938    -9.44476512094547     17.8066981300011 
105 Na    0.942087540099973   -0.213096722613837      12.948795102552    -8.13282752179556     5.68265722691184    -12.8390491808461 
106 Na     3.67220435522194     5.17512014450598      5.0056992952442     9.42297313205845     -5.5930573723769     8.36308079619048 
107 Na       9.046883505849     14.0512764017205     13.3228705573123     7.19577658632908     16.7806499091527    -15.6738923097419 
108 Na     2.59505029907107     6.39330587367397     11.9791632078615    -25.2470863673041     37.9280082858998     12.0953400227466 
109 Cl   -0.668972089642124     3.14489910710512     7.88401706444093     42.1441918291177     50.2319887202077     5.58325083727646 
110 Cl     5.82180369194321     8.97194543507536     17.6135276919036     11.1414173430008    -7.02816662635994      5.2717004799088 
111 Cl     16.1833231254544     11.1818277566602     10.7704328663879    -21.3817187257504     45.4255308037932    -44.0350759539005 
112 Cl     12.8652809092406 -0.00874006572177777     7.90286084772061    -11.8975553698498    -1.43635132553825    0.648288025405002 
113 Cl     3.53824547886517     14.8203324514773    0.167004634659736     6.63018848146962     6.36050288177336    -8.85126976437499 
114 Cl     16.4355304365328     14.6523197211413      13.936658533927    -4.30409863705921     1.24415048999228   -0.492768665853767 
115 Cl     5.98516181716524    -1.71615389962153     1.12675790854286     14.1709006684777    -17.0137980946457     13.9140508120654 
116 Cl     17.7514229210095     12.9093780919751     3.04233836120107    -15.9982291985206     6.07396263946616     7.50619308745526 
117 Cl    -2.93332551549249     8.88894517733012     1.35281350312899     6.28522195419067     2.97707427135571   -0.232939066815145 
118 Cl    0.367100526148234     15.5559109221376     3.31386363302233     49.1710882536186    -7.58018162382746     36.6275827740221 
119 Cl     8.51356009331943     2.44956079479283     -1.8847873803468    -19.9076340524713     4.46208345666447    -1.26454132560034 
120 Cl     11.4373600102655     13.5347281965302     11.9151830866534     14.5627969124158    -18.1403352157102    -2.49928919404359 
121 Cl     5.55248306427664     4.59592938210726     16.6374267661383     5.97464465793901    -5.53547626872721     3.71177370907316 
122 Cl     14.0559409667179     12.4906390755393      6.6076081440212     7.19346809683356     -6.1002192200003     9.89021661236337 
123 Cl    -1.66449416788441       3.290994328829    -2.67427973464525     15.6293978594109    -17.8291984484093     38.8501882318011 
124 Cl     14.5342061589075    -1.82480577477758     13.3187890824879     1.43427578628034    -22.0533553614443    -7.27482223268449 
125 Cl     5.12116325311031    -3.31579463534416    -2.84247931290197    -13.1605762924929     3.63196743308359    -10.4993008761781 
126 Cl     5.75297265180471     7.92527721451508     5.57951120132776    -9.01694799939586     10.4105447950498     7.68877325770927 
127 Cl     15.8602346774355     17.4394506369354     4.15634940339581     11.4223444456024     12.3330763775697     7.57302367983563 
128 Cl     5.09118262902337    -3.34933256753264     13.3444800655555    -1.98828795656405   -0.979284378112237     4.89974381991735 
129 Cl    -3.25246722536858     8.44847613896182      11.546831792915     19.1299024269337    -8.04798640451936     16.1196715448428 
130 Cl     5.42799454415007     17.7171411310399     8.72042566505543     11.4314181710833    -2.18832186478825   -0.776791722458221 
131 Cl      1.0509251584118   -0.574067071289939     9.34701079729839     15.0619244140445    -2.73739918024779     9.44714631074742 
132 Cl     17.4206775033384    0.481066155961996      16.246875918464    -1.18417257970021      18.053952696525     11.2111898550838 
133 Cl    -3.38617009109402     -2.1193293651272    -1.62723341936625    -12.6766768745344    -15.2668496900662     9.95667049452612 
134 Cl      10.262824296456     7.32688357207176     5.63907934484435     6.74401369070835     33.6280973073643    0.638740105188559 
135 Cl     14.1177212544472     10.9229970065598     15.0252922987083      19.516069549294     2.01373342335376   -0.615038665740368 
136 Cl     9.86912793162154    -1.86572767357566   -0.828407264688364    0.736131954701021     9.33540841419105    -1.46794854745059 
137 Cl     9.34990743037858     12.6367025484211     15.5777730431368    -6.56830245530374    -17.6265483059961     14.3458036128051 
138 Cl     5.92544858993808     13.5755707447314     17.6395007028301    -11.5344542972495    -3.15163751798966    0.788502545833511 
139 Cl     6.59327015349538     14.2667285874809     11.9876921562095    -2.80315365047501    -95.2702650647121     27.2483744591887 
140 Cl     14.5898310794211     1.19622281905412     3.66287188228973    -19.6221649155102     1.75994328785235     -3.9630791867423 
141 Cl   -0.897573365601024    -3.36684133143863     6.50865775974976    -8.91870777931311    -19.3685530919446    -11.6846274385141 
142 Cl     11.8008064373627     3.09931852832909     16.4428524760665     15.8087822550099     4.30432084242984     -1.6481736553255 
143 Cl     4.11037611144018      4.6434482900437     8.22113262506956    -15.8821393040187      22.030478284446     11.4550443846613 
144 Cl     16.9397108142642     3.53350859349498     10.0334530085706     17.8530171674422     13.5095621400291    -1.24454368245559 
145 Cl      6.2085639542448    0.730669046554207       11.56606626811   -0.793810863595209     3.77222248946224    -8.19199101216623 
146 Cl    -2.05435376383069   -0.211181916362326     13.1953185405838     22.1089945111266    -30.9454647220705    -1.64234629602804 
147 Cl     1.30163313543127     8.15866743401562     5.91031819584338     6.54791742405666    -18.5273206372282     14.7912345008419 
148 Cl     5.83427462338148      12.260728888644     4.15584771721624    -59.1092241564355      2.3797693405021     40.8291386801638 
149 Cl     13.8160481920519     13.8343869871058      1.2040816003747     6.68063039675654      8.2182538210186     2.62592738166534 
150 Cl     17.4694989329619     5.63406123901798     16.9328540749868    -26.2269549651233     40.4046482812995     4.50022651981587 
151 Cl     15.1646470777045     8.32037786075017     5.16628508324548     13.7919291235802     20.8968491357014      18.416538746131 
152 Cl     7.62267801221992    0.885495898616008     7.16257662026588     3.78521818337467    -7.46923162316519     19.7592314790054 
153 Cl     4.03023091437961      4.2783498821078     12.5302155058788    -9.20539750465465     13.1541380532912      -28.13125910009 
154 Cl    0.323301222316563     2.76677371120657     11.9401904345074    -7.77371530112451    -10.4437096319653      9.7256835620315 
155 Cl    -2.62298747905093     13.6929088128762     6.93592492540622    -7.30672478733794     14.6904906785098     15.3331887178401 
156 Cl     12.7109529917038     7.48893408784679     2.14508598821104     -13.252012564743     3.98513286394049    -40.7174074922068 
157 Cl     2.73072429324496     1.86815749671169     15.8231857346564     18.3938197097557    -17.0998282319575    -8.88679568155486 
158 Cl    -2.67467599953184     11.7717747162699     15.8114016500665    0.465957288996839    -11.9911141597109    0.106168375552416 
159 Cl     9.64736377131115     16.8124068399974     11.3001143527944    -3.71915323136801     6.99979654510666   -0.244881886925423 
160 Cl  -0.0452699135796442     13.0448292196666   -0.517025082870875    -14.0895853656987      -19.89812507274    -13.9836854399551 
161 Cl    -2.52837603659651     4.75519760829393     13.4389313587336     2.60979439099896    -1.79324480571495      5.0447383509265 
162 Cl   -0.275140408616937     16.7851442511189     17.2416170679163     11.1633782841852    0.565916416867177     11.7989226066814 
163 Cl     1.16266617251195     6.57997120009324     14.8327636934121    -1.35657567179215     3.74988725052546    -5.41078004217983 
164 Cl     16.3284344862453     6.15988017840416   -0.781771324943237    -10.2898787271138    -11.4346065941229    -1.48623822303404 
165 Cl    -2.76914151369739   -0.832390151848653      9.0581922766049    -4.16115244290956     3.21695704297899    -7.27297710451897 
166 Cl     8.76408611078586     1.23753327032428      3.6162044513642     22.5451552343621    -10.7319916229467    -27.9118938988902 
167 Cl     10.5761260248351      -2.928473738744     4.53915137035819    -11.7488744905186     30.0866859982971    -18.3277096281017 
168 Cl     3.61725872941636     6.10352802791429    0.320120694584924     4.60649613017377    -8.72112719752331     6.44526036736249 
169 Cl     12.8648200670697     4.63411275457993     8.11644928901141     8.33863376623448      20.881080468555      23.320737042842 
170 Cl     13.3880407186954   -0.554759969409991     -3.5658894974848     11.0538956729138     5.76345314002712     10.4181117989981 
171 Cl     4.51804040538173    0.843045210163196    -1.12977110944361     -6.2941856153162     8.14945564747098    -24.9147355559541 
172 Cl    0.440899398788325      10.465177236381     2.77190558026716     14.7509787513142    -2.98929317964486    -13.4844391721169 
173 Cl     16.0216198753761     10.2430575655058    -2.11755057820915     -1.9588055309482     14.5739302800593    0.491249294818064 
174 Cl     12.5966555484276     5.71959275775965     12.4254674949658     11.5551097053565    -2.04710773374491     10.7426013987094 
175 Cl     12.5963539287656     16.3462978298863     15.4520017284595    -14.7599185084338      29.365488310837     9.77555026352158 
176 Cl     13.2667357536023     17.7757587455098    0.145109809912798     2.49307064359148    -4.27828972427378      -10.60584665012 
177 Cl     8.37643646120595     12.3772265365267     7.90554353910909     2.18051561769776   -0.913415045013058    -4.49429520326428 
178 Cl    -2.47343576217778     9.59975942413956     6.78309587518976   -0.963596596034254    -7.23671550577714     2.66177315155716 
179 Cl     4.13948172366387     10.3632978869576     8.95079634176815    -4.19263551589591     11.2681468176435     13.6813874548932 
180 Cl     8.39018074314264    -3.17172871547813     15.0787900984932     10.0977911010227    -12.8732807847899     14.0366160940086 
181 Cl     7.38463427954705    0.837152099720081     15.5553077462957    -22.7087569358247     39.2124863799697     34.8795090124525 
182 Cl     7.24659715366909     7.86974476680137     12.6019232761369    -11.5458821532564    -8.85548906351832    -11.1246484110728 
183 Cl     13.3296975928244     7.74175363422346    -3.64911382734463     1.09851542185372    -5.89039780193825    -9.78227754147713 
184 Cl     12.1972777208097     3.10292671298773   -0.700577826940472     17.0742139030368    -1.17940512702041      26.077723550009 
185 Cl     4.01185658144542     16.5901691656356     4.68292018348388     8.54891812224697     15.9924082134957      -9.272676223951 
186 Cl     13.1968903863064     8.82229364205562     10.2591525250074    -18.0217144763453    -35.4563270090521    -30.3288935003832 
187 Cl     2.63502226182599     2.49275625397664     4.65309886799215     16.5174707890379     7.61921757838452    -2.87514188682534 
188 Cl     10.1451895939716   -0.672143515476975      12.728955571202      42.732751747115     8.76997899271918    -23.5928471065233 
189 Cl    -1.98454361658004     16.3435996421165     1.02623950458025    -70.9393300229632     32.3328047369828    -44.2688979622628 
190 Cl     1.62499689930105     12.6925896770705     5.93436435011955     6.03007193605811     15.7278222132228     15.2284995330793 
191 Cl     2.99481847423233     14.3521807911532     14.7514920271555    -3.84812973903513     4.34292045719758    -0.53028548915413 
192 Cl     16.8514896907827     1.03576473128206   0.0608749924585118    -7.26403805541619    0.271403272150342    -11.2531432722563 
193 Cl     6.57303084453959     4.41658249302662     4.51877841614845     -15.983744826298    -8.94580851262001    -17.5814323168562 
194 Cl     1.53071115874304     11.9941703784979      17.105490839693    -8.27687989033129    -8.44205053542541     13.5571158257453 
195 Cl     9.25312817263708     11.8557810476135      3.7789048522745     22.9722705738234     -8.7861643097479     1.54710931214031 
196 Cl    0.480137906160618      15.705160902098     9.70741399792716    -11.2709186540136    -28.1224364167303    -3.16948798065578 
197 Cl     9.39206357231318     6.39659325075107     15.4243439165073     37.3039139381868     15.0194365566113     24.6434466149609 
198 Cl   0.0802792699383641     6.81583985715006     10.2872071942303     16.7043472332258    -15.7661931510943    -6.14536878699755 
199 Cl     9.31316880557515     3.62351674833809     12.5503166211804    -7.51112705347241      -32.38857893201     8.93815952533824 
200 Cl     16.5759640429954      4.7018794525523     4.08531950051727    -10.8400364317553    -9.83556870727416    0.207046887558721 
201 Cl     0.13813871427891   -0.696111703733023    -2.75531283745303      10.295772243494     7.91375503610599     2.44373253342543 
202 Cl    -3.51442930418255     14.4401183583814    -3.06338569738952    -2.56420937471292    -4.44691425764915     3.52175816346067 
203 Cl     11.8647372866441     4.27376463116209     4.63858027591537      6.9906076225712     -34.878703323561     -29.460238821555 
204 Cl     5.95309579174479     10.6809704242372   -0.400885452519114    0.584851728114704   -0.207005836491627    -3.19158625583643 
205 Cl     1.66709180504809    -2.02068705901804     15.0541440925131     2.34787624496696      35.332925079461     12.2204057039414 
206 Cl    0.568761824921954    -2.20940513284289     1.51072416779312      56.414743803583     -2.4162031399779     4.08035791543713 
207 Cl      10.639095705802     10.4940176948981    -2.31567958506953    -7.04378852813106    -4.55548664205208    -14.0494976370907 
208 Cl     9.68120674102724      15.241096301702    -2.17955257454017    -13.9178132764754     22.0279947016922     49.4407111328251 
209 Cl     8.49475642207186     4.82926093430452     8.68056014632655    -9.89774414091979    -3.69244316266008     27.7588173283038 
210 Cl     16.3650062285654      17.190251228228     10.0988105159607     11.5374280565128    -12.6554075512802    -8.59919981612161 
211 Cl     13.5940172883203     13.6153771854111    -3.54849653139596     -9.7354163244338    -11.4994757445442     35.8950764340668 
212 Cl     14.5726252572141     1.69570666993032     12.4567653520322    -5.66022583773674     19.7997340784514     17.2514500832778 
213 Cl   -0.587732505945109      11.720956206919     11.9111585817664    -0.93051931576883     8.11346842760458    -6.34671049725742 
214 Cl    -1.05744189518821      15.965907797697     13.6706969262091    -62.3723212000727    -34.2353981577526    -28.8065162510781 
215 Cl   -0.428477620378466     7.81274248815543    -2.07026819081761     13.9231407412391     21.4049900305205     -6.3989287183191 
216 Cl     10.3206947819456     15.9123535282699     7.04546302267539     4.63911868022048     2.47920745619444     21.9657017753139 
